{
    "data": {
        "illustrates": 1, 
        "kats": 1, 
        "four": 1, 
        "talks": 1, 
        "follow": 1, 
        "hate": 1, 
        "issues": 1, 
        "relationships": 1, 
        "responsiveness": 1, 
        "graph": 1, 
        "send": 1, 
        "helps": 1, 
        "lord": 1, 
        "pride": 1, 
        "dramatically": 1, 
        "passivity": 1, 
        "town": 1, 
        "garden": 1, 
        "song": 1, 
        "translations": 1, 
        "seemingly": 1, 
        "decide": 1, 
        "bringing": 1, 
        "categories": 1, 
        "entire": 1, 
        "we'll": 1, 
        "respectful": 1, 
        "positions": 1, 
        "brother": 1, 
        "sliding": 1, 
        "quick": 1, 
        "well-being": 1, 
        "purposefulness": 1, 
        "uncomfortable": 1, 
        "cheapening": 1, 
        "deeply": 1, 
        "exactly": 1, 
        "availability": 1, 
        "churches": 1, 
        "falling": 1, 
        "ever": 1, 
        "unquestioned": 1, 
        "devoted": 1, 
        "upsetting": 1, 
        "objects": 1, 
        "affiliated": 1, 
        "along": 1, 
        "appears": 1, 
        "change": 1, 
        "boy": 1, 
        "engage": 1, 
        "pearls": 1, 
        "bow": 1, 
        "definitively": 1, 
        "pick": 1, 
        "military": 1, 
        "couple": 1, 
        "suitable": 1, 
        "followed": 1, 
        "apple": 1, 
        "family": 1, 
        "win": 1, 
        "app": 1, 
        "fractured": 1, 
        "natural": 1, 
        "marriages": 1, 
        "feelings": 1, 
        "overarching": 1, 
        "specifics": 1, 
        "opportunities": 1, 
        "frame": 1, 
        "confidence": 1, 
        "takes": 1, 
        "working": 1, 
        "positive": 1, 
        "angry": 1, 
        "arms": 1, 
        "Christ's": 1, 
        "taken": 1, 
        "loving": 1, 
        "biblical": 1, 
        "train": 1, 
        "basically": 1, 
        "known": 1, 
        "effort": 1, 
        "glad": 1, 
        "must": 1, 
        "shoot": 1, 
        "topic": 1, 
        "join": 1, 
        "room": 1, 
        "rights": 1, 
        "car": 1, 
        "soul": 1, 
        "anywhere": 1, 
        "pulling": 1, 
        "shaving": 1, 
        "root": 1, 
        "claim": 1, 
        "crazy": 1, 
        "figure": 1, 
        "cheapens": 1, 
        "process": 1, 
        "high": 1, 
        "posing": 1, 
        "rendition": 1, 
        "keep": 1, 
        "evidently": 1, 
        "absolute": 1, 
        "chores": 1, 
        "needs": 1, 
        "goal": 1, 
        "worldview": 1, 
        "sit": 1, 
        "six": 1, 
        "amazing": 1, 
        "struggled": 1, 
        "beach": 1, 
        "idaho": 1, 
        "profile": 1, 
        "description": 1, 
        "may": 1, 
        "insecure": 1, 
        "reaction": 1, 
        "connectivity": 1, 
        "modest": 1, 
        "birthday": 1, 
        "mad": 1, 
        "coming": 1, 
        "fits": 1, 
        "such": 1, 
        "revealed": 1, 
        "response": 1, 
        "tatiseigi": 1, 
        "realized": 1, 
        "attempt": 1, 
        "accelerates": 1, 
        "whenever": 1, 
        "light": 1, 
        "Mama's": 1, 
        "eats": 1, 
        "stasi": 1, 
        "enter": 1, 
        "necklace": 1, 
        "pleasure": 1, 
        "typical": 1, 
        "Who": 1, 
        "intuition": 1, 
        "years": 1, 
        "131": 1, 
        "won't": 1, 
        "cold": 1, 
        "still": 1, 
        "worship": 1, 
        "tendency": 1, 
        "perfect": 1, 
        "27": 1, 
        "lovingly": 1, 
        "21": 1, 
        "23": 1, 
        "fix": 1, 
        "responsibilities": 1, 
        "labor": 1, 
        "late": 1, 
        "absence": 1, 
        "degrees": 1, 
        "choose": 1, 
        "weeks": 1, 
        "tiara": 1, 
        "no-brainer": 1, 
        "ally": 1, 
        "happened": 1, 
        "disrespectful": 1, 
        "seeking": 1, 
        "moms": 1, 
        "smarter": 1, 
        "day": 1, 
        "mystery": 1, 
        "desperately": 1, 
        "name": 1, 
        "intelligent": 1, 
        "drop": 1, 
        "appropriate": 1, 
        "yours": 1, 
        "realistic": 1, 
        "trap": 1, 
        "truth": 1, 
        "found": 1, 
        "went": 1, 
        "easer": 1, 
        "neutered": 1, 
        "heavy": 1, 
        "breakdown": 1, 
        "significantly": 1, 
        "eldredge": 1, 
        "house": 1, 
        "hard": 1, 
        "principles": 1, 
        "they've": 1, 
        "society": 1, 
        "preaching": 1, 
        "sexually": 1, 
        "category": 1, 
        "living": 1, 
        "ultimately": 1, 
        "research": 1, 
        "looking": 1, 
        "attracted": 1, 
        "mate": 1, 
        "shouldn't": 1, 
        "7": 1, 
        "internet": 1, 
        "issue": 1, 
        "correct": 1, 
        "assured": 1, 
        "nurtures": 1, 
        "standard": 1, 
        "people's": 1, 
        "kit": 1, 
        "care": 1, 
        "ental": 1, 
        "ministry": 1, 
        "100%": 1, 
        "honest": 1, 
        "turn": 1, 
        "Philippians": 1, 
        "invitation": 1, 
        "xsplit": 1, 
        "designed": 1, 
        "major": 1, 
        "already": 1, 
        "rooted": 1, 
        "possessing": 1, 
        "synonymous": 1, 
        "jesus": 1, 
        "directly": 1, 
        "carry": 1, 
        "ring": 1, 
        "extrovert": 1, 
        "illustrate": 1, 
        "razor": 1, 
        "exists": 1, 
        "blossom": 1, 
        "interact": 1, 
        "plastic": 1, 
        "anyone": 1, 
        "compromise": 1, 
        "pains": 1, 
        "dogs": 1, 
        "friend": 1, 
        "low": 1, 
        "exploring": 1, 
        "eyes": 1, 
        "treasured": 1, 
        "behind": 1, 
        "centered": 1, 
        "season": 1, 
        "men's": 1, 
        "reflecting": 1, 
        "fuzzy": 1, 
        "copy": 1, 
        "remember": 1, 
        "loved": 1, 
        "13": 1, 
        "15": 1, 
        "fitment": 1, 
        "16": 1, 
        "19": 1, 
        "bez": 1, 
        "matter": 1, 
        "utopia": 1, 
        "painful": 1, 
        "loves": 1, 
        "video": 1, 
        "negatively": 1, 
        "misunderstood": 1, 
        "treated": 1, 
        "devotion": 1, 
        "exhibit": 1, 
        "sees": 1, 
        "Hebrew": 1, 
        "footnote": 1, 
        "Father": 1, 
        "seem": 1, 
        "seek": 1, 
        "clearly": 1, 
        "vulnerable": 1, 
        "qualities": 1, 
        "paths": 1, 
        "strength": 1, 
        "Jewish": 1, 
        "responsible": 1, 
        "ideas": 1, 
        "parks": 1, 
        "oriented": 1, 
        "instance": 1, 
        "intends": 1, 
        "fracture": 1, 
        "interior": 1, 
        "wanting": 1, 
        "vandals": 1, 
        "parka": 1, 
        "soap": 1, 
        "girl's": 1, 
        "sure": 1, 
        "multiple": 1, 
        "Name": 1, 
        "quote": 1, 
        "twirl": 1, 
        "twirls": 1, 
        "equipping": 1, 
        "falls": 1, 
        "mimics": 1, 
        "letter": 1, 
        "complaints": 1, 
        "accepting": 1, 
        "intrinsic": 1, 
        "husband's": 1, 
        "average": 1, 
        "camp": 1, 
        "implications": 1, 
        "face": 1, 
        "coven": 1, 
        "you'll": 1, 
        "definitely": 1, 
        "guard": 1, 
        "left": 1, 
        "walking": 1, 
        "gold": 1, 
        "show": 1, 
        "probe": 1, 
        "anyway": 1, 
        "discovered": 1, 
        "concurs": 1, 
        "radio": 1, 
        "fear": 1, 
        "find": 1, 
        "inspiring": 1, 
        "busy": 1, 
        "spite": 1, 
        "situations": 1, 
        "explain": 1, 
        "3": 1, 
        "spirituality": 1, 
        "wood": 1, 
        "deepest": 1, 
        "ambiguity": 1, 
        "pursuing": 1, 
        "scripture": 1, 
        "personality": 1, 
        "hit": 1, 
        "distance": 1, 
        "bear": 1, 
        "truly": 1, 
        "pocket": 1, 
        "altogether": 1, 
        "self-evident": 1, 
        "nagging": 1, 
        "entity": 1, 
        "burned": 1, 
        "thermoses": 1, 
        "reading": 1, 
        "bar": 1, 
        "continuum": 1, 
        "covering": 1, 
        "generally": 1, 
        "sacrifices": 1, 
        "twice": 1, 
        "forsake": 1, 
        "activity": 1, 
        "distant": 1, 
        "view": 1, 
        "decides": 1, 
        "fair": 1, 
        "naked": 1, 
        "peripheral": 1, 
        "deity": 1, 
        "pictures": 1, 
        "away": 1, 
        "enough": 1, 
        "various": 1, 
        "permeated": 1, 
        "diamonds": 1, 
        "drawn": 1, 
        "neither": 1, 
        "Isaiah": 1, 
        "frustrated": 1, 
        "thrive": 1, 
        "available": 1, 
        "warrior": 1, 
        "toothbrush": 1, 
        "job": 1, 
        "His": 1, 
        "hurts": 1, 
        "competent": 1, 
        "picking": 1, 
        "received": 1, 
        "providing": 1, 
        "invited": 1, 
        "quarrelsome": 1, 
        "connection": 1, 
        "became": 1, 
        "receives": 1, 
        "comment": 1, 
        "Timothy": 1, 
        "simple": 1, 
        "environments": 1, 
        "walk": 1, 
        "66": 1, 
        "respect": 1, 
        "yay": 1, 
        "puts": 1, 
        "toothpaste": 1, 
        "strengthen": 1, 
        "basic": 1, 
        "lady's": 1, 
        "shoulders": 1, 
        "lived": 1, 
        "beloved": 1, 
        "life-giving": 1, 
        "both": 1, 
        "dramatic": 1, 
        "deep": 1, 
        "realities": 1, 
        "myself": 1, 
        "Old": 1, 
        "reciprocal": 1, 
        "straight": 1, 
        "appearance": 1, 
        "lesser": 1, 
        "near": 1, 
        "sexuality": 1, 
        "wouldn't": 1, 
        "ization": 1, 
        "tar": 1, 
        "played": 1, 
        "thus": 1, 
        "exterior": 1, 
        "baseline": 1, 
        "saw": 1, 
        "wound": 1, 
        "split": 1, 
        "struggling": 1, 
        "fill": 1, 
        "events": 1, 
        "covenant": 1, 
        "lie": 1, 
        "social": 1, 
        "upon": 1, 
        "effect": 1, 
        "flows": 1, 
        "stashed": 1, 
        "husbands": 1, 
        "moving": 1, 
        "characters": 1, 
        "wives": 1, 
        "opportunity": 1, 
        "fighting": 1, 
        "obviously": 1, 
        "thought": 1, 
        "severe": 1, 
        "overcorrect": 1, 
        "bottle": 1, 
        "humbly": 1, 
        "cream": 1, 
        "entry": 1, 
        "possesses": 1, 
        "Godhead": 1, 
        "load": 1, 
        "eltima": 1, 
        "exploits": 1, 
        "photo": 1, 
        "domestic": 1, 
        "assigned": 1, 
        "identify": 1, 
        "aspect": 1, 
        "mother": 1, 
        "thinking": 1, 
        "sexier": 1, 
        "passive": 1, 
        "shout": 1, 
        "parents": 1, 
        "4": 1, 
        "easy": 1, 
        "save": 1, 
        "337": 1, 
        "gave": 1, 
        "real": 1, 
        "aspects": 1, 
        "checking": 1, 
        "big": 1, 
        "breaks": 1, 
        "who's": 1, 
        "Worth": 1, 
        "gonna": 1, 
        "unveil": 1, 
        "birth": 1, 
        "using": 1, 
        "shadow": 1, 
        "accepted": 1, 
        "lady": 1, 
        "massively": 1, 
        "apart": 1, 
        "towel": 1, 
        "lost": 1, 
        "specific": 1, 
        "wildcats": 1, 
        "fully": 1, 
        "translated": 1, 
        "softness": 1, 
        "security": 1, 
        "honored": 1, 
        "exposed": 1, 
        "absolutely": 1, 
        "searching": 1, 
        "dead": 1, 
        "hair": 1, 
        "traits": 1, 
        "added": 1, 
        "tiaras": 1, 
        "scale": 1, 
        "there'll": 1, 
        "bottom": 1, 
        "asking": 1, 
        "eliminate": 1, 
        "cathedrals": 1, 
        "Chris": 1, 
        "leader": 1, 
        "destroys": 1, 
        "biology": 1, 
        "mystique": 1, 
        "run": 1, 
        "ba": 1, 
        "power": 1, 
        "pose": 1, 
        "communicate": 1, 
        "pressure": 1, 
        "terrified": 1, 
        "stay": 1, 
        "voluntarily": 1, 
        "vs.": 1, 
        "central": 1, 
        "oh": 1, 
        "fightin": 1, 
        "chop": 1, 
        "mutually": 1, 
        "decent": 1, 
        "silence": 1, 
        "imago": 1, 
        "dagger": 1, 
        "washington": 1, 
        "son": 1, 
        "cursed": 1, 
        "momma": 1, 
        "primarily": 1, 
        "roads": 1, 
        "drifted": 1, 
        "uncontrollably": 1, 
        "Amen": 1, 
        "self-explanatory": 1, 
        "submit": 1, 
        "fight": 1, 
        "prettier": 1, 
        "introvert": 1, 
        "series": 1, 
        "cultures": 1, 
        "opens": 1, 
        "function": 1, 
        "himself": 1, 
        "form": 1, 
        "introduction": 1, 
        "Dei": 1, 
        "Psalm": 1, 
        "eat": 1, 
        "wasn't": 1, 
        "wish": 1, 
        "inside": 1, 
        "convince": 1, 
        "asst": 1, 
        "affection": 1, 
        "devastating": 1, 
        "associated": 1, 
        "pin": 1, 
        "migrate": 1, 
        "sinful": 1, 
        "describe": 1, 
        "beauty's": 1, 
        "prayer": 1, 
        "moves": 1, 
        "check": 1, 
        "physical": 1, 
        "Paul's": 1, 
        "national": 1, 
        "commercials": 1, 
        "boot": 1, 
        "graduate": 1, 
        "sick": 1, 
        "fuzzies": 1, 
        "trajectory": 1, 
        "poop": 1, 
        "embracing": 1, 
        "includes": 1, 
        "important": 1, 
        "Thessalonians": 1, 
        "connotations": 1, 
        "happening": 1, 
        "calls": 1, 
        "intentional": 1, 
        "required": 1, 
        "intentionally": 1, 
        "depth": 1, 
        "time": 1, 
        "alright": 1, 
        "validation": 1, 
        "requires": 1, 
        "indirectly": 1, 
        "initiating": 1, 
        "songs": 1, 
        "felt": 2, 
        "skin": 2, 
        "father": 2, 
        "demonstrate": 2, 
        "certain": 2, 
        "sent": 2, 
        "advantage": 2, 
        "differently": 2, 
        "putting": 2, 
        "affect": 2, 
        "isn't": 2, 
        "oftentimes": 2, 
        "heaven": 2, 
        "mothers": 2, 
        "having": 2, 
        "leave": 2, 
        "clothes": 2, 
        "past": 2, 
        "perspective": 2, 
        "further": 2, 
        "degraded": 2, 
        "established": 2, 
        "curse": 2, 
        "above": 2, 
        "revealing": 2, 
        "kids": 2, 
        "degree": 2, 
        "pushing": 2, 
        "dude": 2, 
        "throw": 2, 
        "Romans": 2, 
        "started": 2, 
        "yo": 2, 
        "ascribe": 2, 
        "Eve": 2, 
        "midst": 2, 
        "pursue": 2, 
        "getting": 2, 
        "guards": 2, 
        "nurture": 2, 
        "speaks": 2, 
        "inherent": 2, 
        "tool": 2, 
        "reflect": 2, 
        "childbearing": 2, 
        "allow": 2, 
        "help": 2, 
        "pointed": 2, 
        "displayed": 2, 
        "balanced": 2, 
        "dad": 2, 
        "motivated": 2, 
        "safe": 2, 
        "Adam": 2, 
        "24": 2, 
        "yourself": 2, 
        "bricks": 2, 
        "university": 2, 
        "gender": 2, 
        "doing": 2, 
        "overwhelming": 2, 
        "connect": 2, 
        "happen": 2, 
        "intended": 2, 
        "motherhood": 2, 
        "crucial": 2, 
        "heavenly": 2, 
        "after": 2, 
        "disrespect": 2, 
        "language": 2, 
        "needing": 2, 
        "wrong": 2, 
        "creates": 2, 
        "number": 2, 
        "story": 2, 
        "girly": 2, 
        "become": 2, 
        "leading": 2, 
        "girls": 2, 
        "pervasive": 2, 
        "pushes": 2, 
        "negativity": 2, 
        "herself": 2, 
        "18": 2, 
        "theology": 2, 
        "min": 2, 
        "self": 2, 
        "without": 2, 
        "build": 2, 
        "tall": 2, 
        "sustainer": 2, 
        "seize": 2, 
        "typically": 2, 
        "earth": 2, 
        "man's": 2, 
        "original": 2, 
        "buttress": 2, 
        "feels": 2, 
        "cannot": 2, 
        "negative": 2, 
        "spirit": 2, 
        "human": 2, 
        "proverbs": 2, 
        "draws": 2, 
        "Trinity": 2, 
        "supposed": 2, 
        "never": 2, 
        "ability": 2, 
        "screen": 2, 
        "weak": 2, 
        "however": 2, 
        "longs": 2, 
        "20": 2, 
        "colors": 2, 
        "narrative": 2, 
        "exceeds": 2, 
        "can't": 2, 
        "Christ": 2, 
        "point": 2, 
        "each": 2, 
        "simply": 2, 
        "sexy": 2, 
        "actually": 2, 
        "expensive": 2, 
        "speak": 2, 
        "better": 2, 
        "create": 2, 
        "three": 2, 
        "entered": 2, 
        "attractive": 2, 
        "distorts": 2, 
        "humanity": 2, 
        "items": 2, 
        "reads": 2, 
        "funny": 2, 
        "evenly": 2, 
        "Apple": 2, 
        "same": 2, 
        "beside": 2, 
        "read": 2, 
        "moment": 2, 
        "unicorn": 2, 
        "modeled": 2, 
        "person": 2, 
        "accurate": 2, 
        "personhood": 2, 
        "immediately": 2, 
        "protecting": 2, 
        "yes": 2, 
        "yet": 2, 
        "enters": 2, 
        "conclude": 2, 
        "had": 2, 
        "sometimes": 2, 
        "reasons": 2, 
        "administrative": 2, 
        "vacuum": 2, 
        "helpful": 2, 
        "Spirit": 2, 
        "crown": 2, 
        "New": 2, 
        "loses": 2, 
        "provided": 2, 
        "everything": 2, 
        "somehow": 2, 
        "use": 2, 
        "step": 2, 
        "buttresses": 2, 
        "described": 2, 
        "comparison": 2, 
        "sister": 2, 
        "hot": 2, 
        "stand": 2, 
        "weight": 2, 
        "naturally": 2, 
        "differences": 2, 
        "strikes": 2, 
        "trying": 2, 
        "pull": 2, 
        "places": 2, 
        "um": 2, 
        "placed": 2, 
        "daddy": 2, 
        "general": 2, 
        "facebook": 2, 
        "looked": 2, 
        "holy": 2, 
        "incredible": 2, 
        "intent": 2, 
        "friends": 2, 
        "desert": 2, 
        "building": 2, 
        "land": 2, 
        "carrying": 2, 
        "yell": 2, 
        "pointing": 3, 
        "he's": 3, 
        "Testament": 3, 
        "far": 3, 
        "fall": 3, 
        "work": 3, 
        "sacrificially": 3, 
        "while": 3, 
        "hours": 3, 
        "explore": 3, 
        "Paraclete": 3, 
        "daughter": 3, 
        "through": 3, 
        "action": 3, 
        "makes": 3, 
        "percent": 3, 
        "hearts": 3, 
        "reflects": 3, 
        "pretty": 3, 
        "mankind": 3, 
        "thermos": 3, 
        "believes": 3, 
        "easier": 3, 
        "could": 3, 
        "taking": 3, 
        "dress": 3, 
        "1": 3, 
        "words": 3, 
        "level": 3, 
        "pray": 3, 
        "womanhood": 3, 
        "roles": 3, 
        "greater": 3, 
        "term": 3, 
        "gets": 3, 
        "married": 3, 
        "beyond": 3, 
        "brings": 3, 
        "accomplish": 3, 
        "Holy": 3, 
        "characteristic": 3, 
        "rest": 3, 
        "given": 3, 
        "teach": 3, 
        "beginning": 3, 
        "done": 3, 
        "2": 3, 
        "too": 3, 
        "mama": 3, 
        "hundred": 3, 
        "park": 3, 
        "humble": 3, 
        "alongside": 3, 
        "yielding": 3, 
        "take": 3, 
        "let's": 3, 
        "plan": 3, 
        "text": 3, 
        "bring": 3, 
        "goes": 3, 
        "between": 3, 
        "culture": 3, 
        "individual": 3, 
        "desires": 3, 
        "powerful": 3, 
        "position": 3, 
        "across": 3, 
        "wear": 3, 
        "extent": 3, 
        "against": 3, 
        "seems": 3, 
        "exploit": 3, 
        "leads": 3, 
        "flourish": 3, 
        "bathroom": 3, 
        "I've": 3, 
        "wants": 3, 
        "almost": 3, 
        "embrace": 3, 
        "confident": 3, 
        "began": 3, 
        "difficult": 3, 
        "i'm": 3, 
        "mom": 3, 
        "effects": 3, 
        "Scripture": 3, 
        "goblet": 3, 
        "which": 3, 
        "press": 3, 
        "essential": 3, 
        "Keith": 3, 
        "reveal": 3, 
        "chapter": 3, 
        "own": 3, 
        "nothing": 3, 
        "promise": 3, 
        "cats": 3, 
        "pastor": 3, 
        "true": 3, 
        "raising": 3, 
        "god-given": 3, 
        "responding": 3, 
        "uh": 3, 
        "problem": 3, 
        "helping": 3, 
        "throughout": 3, 
        "home": 3, 
        "rule": 3, 
        "sorry": 4, 
        "verse": 4, 
        "I'd": 4, 
        "Bible": 4, 
        "second": 4, 
        "even": 4, 
        "jokes": 4, 
        "led": 4, 
        "let": 4, 
        "every": 4, 
        "allows": 4, 
        "uniquely": 4, 
        "themselves": 4, 
        "hurt": 4, 
        "Lord": 4, 
        "answer": 4, 
        "pink": 4, 
        "okay": 4, 
        "essence": 4, 
        "whether": 4, 
        "good": 4, 
        "starts": 4, 
        "talked": 4, 
        "clarity": 4, 
        "Genesis": 4, 
        "paint": 4, 
        "lot": 4, 
        "shampoo": 4, 
        "ungodly": 4, 
        "exploited": 4, 
        "wearing": 4, 
        "calling": 4, 
        "gospel": 4, 
        "humans": 4, 
        "best": 4, 
        "ways": 4, 
        "attention": 4, 
        "protect": 4, 
        "many": 4, 
        "responds": 4, 
        "much": 4, 
        "around": 4, 
        "context": 4, 
        "less": 4, 
        "reality": 4, 
        "we've": 4, 
        "submissive": 4, 
        "either": 4, 
        "works": 4, 
        "church": 4, 
        "act": 4, 
        "escape": 4, 
        "bigger": 4, 
        "happens": 4, 
        "anything": 4, 
        "god": 4, 
        "inviting": 4, 
        "within": 4, 
        "flying": 4, 
        "question": 4, 
        "hey": 4, 
        "start": 4, 
        "I'll": 4, 
        "understood": 4, 
        "female": 4, 
        "exist": 4, 
        "male": 4, 
        "points": 4, 
        "push": 4, 
        "under": 5, 
        "excited": 5, 
        "others": 5, 
        "alone": 5, 
        "aren't": 5, 
        "Jesus": 5, 
        "tell": 5, 
        "hold": 5, 
        "woman's": 5, 
        "didn't": 5, 
        "place": 5, 
        "him": 5, 
        "attack": 5, 
        "protected": 5, 
        "were": 5, 
        "gives": 5, 
        "fact": 5, 
        "only": 5, 
        "always": 5, 
        "deeper": 5, 
        "value": 5, 
        "another": 5, 
        "used": 5, 
        "purpose": 5, 
        "yeah": 5, 
        "off": 5, 
        "secure": 5, 
        "draw": 5, 
        "side": 5, 
        "flourishing": 5, 
        "leadership": 5, 
        "again": 5, 
        "called": 5, 
        "role": 5, 
        "realize": 5, 
        "wife": 5, 
        "she's": 5, 
        "children": 6, 
        "difference": 6, 
        "did": 6, 
        "responsibility": 6, 
        "order": 6, 
        "creation": 6, 
        "also": 6, 
        "helper": 6, 
        "mean": 6, 
        "doesn't": 6, 
        "ask": 6, 
        "marriage": 6, 
        "saying": 6, 
        "respond": 6, 
        "reveals": 6, 
        "terms": 6, 
        "come": 6, 
        "display": 6, 
        "whole": 6, 
        "else": 6, 
        "made": 6, 
        "those": 6, 
        "single": 6, 
        "sudden": 6, 
        "any": 6, 
        "feminine": 6, 
        "well": 6, 
        "two": 6, 
        "affects": 6, 
        "distortion": 6, 
        "am": 6, 
        "together": 6, 
        "back": 6, 
        "worth": 7, 
        "end": 7, 
        "no": 7, 
        "talk": 7, 
        "responsive": 7, 
        "got": 7, 
        "begins": 7, 
        "distorted": 7, 
        "said": 7, 
        "hope": 7, 
        "husband": 7, 
        "glory": 7, 
        "what's": 7, 
        "characteristics": 7, 
        "outside": 7, 
        "boys": 7, 
        "life": 7, 
        "now": 8, 
        "you've": 8, 
        "little": 8, 
        "core": 8, 
        "first": 8, 
        "someone": 8, 
        "unique": 8, 
        "stuff": 8, 
        "its": 8, 
        "seen": 8, 
        "different": 8, 
        "before": 8, 
        "part": 9, 
        "possess": 9, 
        "feel": 9, 
        "most": 9, 
        "why": 9, 
        "image": 9, 
        "today": 10, 
        "very": 10, 
        "might": 10, 
        "incredibly": 10, 
        "guy": 11, 
        "understanding": 11, 
        "live": 11, 
        "sense": 11, 
        "relational": 11, 
        "here's": 11, 
        "need": 11, 
        "able": 11, 
        "means": 11, 
        "word": 11, 
        "been": 11, 
        "character": 11, 
        "their": 12, 
        "design": 12, 
        "give": 12, 
        "really": 12, 
        "talking": 12, 
        "comes": 12, 
        "sacrificial": 12, 
        "other": 12, 
        "lead": 12, 
        "maybe": 12, 
        "says": 13, 
        "put": 13, 
        "idea": 13, 
        "relationship": 13, 
        "should": 13, 
        "girl": 13, 
        "capacity": 13, 
        "people": 13, 
        "does": 14, 
        "here": 14, 
        "sin": 14, 
        "his": 14, 
        "last": 14, 
        "by": 14, 
        "guys": 14, 
        "week": 14, 
        "heart": 15, 
        "world": 15, 
        "nurturing": 15, 
        "than": 15, 
        "hear": 15, 
        "make": 15, 
        "one": 15, 
        "created": 15, 
        "picture": 15, 
        "me": 16, 
        "then": 16, 
        "specifically": 16, 
        "he": 16, 
        "love": 16, 
        "was": 16, 
        "from": 17, 
        "beautiful": 17, 
        "get": 17, 
        "over": 17, 
        "where": 17, 
        "i": 17, 
        "would": 17, 
        "beauty": 18, 
        "out": 18, 
        "desire": 18, 
        "her": 18, 
        "believe": 18, 
        "we're": 18, 
        "go": 19, 
        "towards": 19, 
        "looks": 19, 
        "thing": 19, 
        "God's": 19, 
        "up": 19, 
        "there": 20, 
        "an": 20, 
        "man": 21, 
        "understand": 21, 
        "being": 22, 
        "don't": 22, 
        "she": 22, 
        "say": 22, 
        "things": 22, 
        "they": 23, 
        "will": 23, 
        "or": 23, 
        "godly": 24, 
        "us": 24, 
        "you're": 25, 
        "men": 25, 
        "these": 25, 
        "at": 25, 
        "know": 25, 
        "some": 25, 
        "more": 26, 
        "them": 26, 
        "who": 26, 
        "into": 27, 
        "can": 28, 
        "right": 28, 
        "has": 29, 
        "look": 29, 
        "just": 29, 
        "I'm": 30, 
        "do": 30, 
        "with": 31, 
        "masculinity": 32, 
        "our": 32, 
        "going": 33, 
        "kind": 33, 
        "if": 33, 
        "something": 34, 
        "ladies": 34, 
        "how": 35, 
        "on": 36, 
        "way": 36, 
        "women": 37, 
        "want": 37, 
        "think": 37, 
        "my": 37, 
        "all": 39, 
        "that's": 40, 
        "woman": 41, 
        "begin": 41, 
        "femininity": 42, 
        "it's": 42, 
        "as": 43, 
        "are": 46, 
        "about": 47, 
        "because": 49, 
        "have": 52, 
        "your": 52, 
        "see": 57, 
        "but": 58, 
        "there's": 59, 
        "when": 59, 
        "not": 61, 
        "like": 69, 
        "God": 76, 
        "so": 86, 
        "for": 86, 
        "be": 105, 
        "what": 106, 
        "we": 123, 
        "it": 135, 
        "I": 139, 
        "in": 177, 
        "you": 213, 
        "a": 223, 
        "is": 246, 
        "of": 263, 
        "the": 269, 
        "this": 312, 
        "that": 324, 
        "and": 349, 
        "to": 403
    }, 
    "metadata": {
        "pastor": "Kieth Weiser", 
        "title": "Femininity by Design"
    }
}