{
    "data": {
        "secondly": 1, 
        "forget": 1, 
        "eternally": 1, 
        "month": 1, 
        "hanging": 1, 
        "talks": 1, 
        "hate": 1, 
        "cases": 1, 
        "relationships": 1, 
        "cheney": 1, 
        "laid": 1, 
        "answered": 1, 
        "discipled": 1, 
        "dominated": 1, 
        "sorry": 1, 
        "pride": 1, 
        "misunderstanding": 1, 
        "I'd": 1, 
        "fall": 1, 
        "telling": 1, 
        "difference": 1, 
        "oftentimes": 1, 
        "believed": 1, 
        "cooks": 1, 
        "try": 1, 
        "guiding": 1, 
        "team": 1, 
        "enjoy": 1, 
        "force": 1, 
        "outwork": 1, 
        "preaches": 1, 
        "second": 1, 
        "design": 1, 
        "Northwest": 1, 
        "Heritage": 1, 
        "Jane": 1, 
        "Collins": 1, 
        "darkness": 1, 
        "campuses": 1, 
        "Worker": 1, 
        "Boise": 1, 
        "lights": 1, 
        "capital": 1, 
        "shared": 1, 
        "America": 1, 
        "told": 1, 
        "hero": 1, 
        "desires": 1, 
        "men": 1, 
        "understanding": 1, 
        "water": 1, 
        "met": 1, 
        "poverty": 1, 
        "groups": 1, 
        "others": 1, 
        "alone": 1, 
        "aren't": 1, 
        "boy": 1, 
        "convert": 1, 
        "kids": 1, 
        "thirty": 1, 
        "involved": 1, 
        "bot": 1, 
        "experience": 1, 
        "leaving": 1, 
        "weren't": 1, 
        "pick": 1, 
        "usually": 1, 
        "someone's": 1, 
        "makes": 1, 
        "named": 1, 
        "bro": 1, 
        "singing": 1, 
        "negative": 1, 
        "next": 1, 
        "eleven": 1, 
        "doubt": 1, 
        "therefore": 1, 
        "Supper": 1, 
        "themselves": 1, 
        "until": 1, 
        "sort": 1, 
        "knows": 1, 
        "started": 1, 
        "Brad": 1, 
        "midst": 1, 
        "Messianic": 1, 
        "women": 1, 
        "fly": 1, 
        "majority": 1, 
        "defeats": 1, 
        "pastor's": 1, 
        "benefitting": 1, 
        "aliy": 1, 
        "gathers": 1, 
        "bringer": 1, 
        "praise": 1, 
        "growing": 1, 
        "root": 1, 
        "history": 1, 
        "crazy": 1, 
        "citizens": 1, 
        "figure": 1, 
        "stated": 1, 
        "process": 1, 
        "days": 1, 
        "high": 1, 
        "slip": 1, 
        "sense": 1, 
        "Mis": 1, 
        "sir": 1, 
        "end": 1, 
        "goal": 1, 
        "awkward": 1, 
        "guru": 1, 
        "dinner": 1, 
        "till": 1, 
        "amazing": 1, 
        "elephant": 1, 
        "answer": 1, 
        "instead": 1, 
        "plant": 1, 
        "rude": 1, 
        "huge": 1, 
        "transforming": 1, 
        "reconciled": 1, 
        "after": 1, 
        "wrong": 1, 
        "plane": 1, 
        "lighting": 1, 
        "designed": 1, 
        "stress": 1, 
        "light": 1, 
        "sit": 1, 
        "fluent": 1, 
        "switch": 1, 
        "honestly": 1, 
        "allow": 1, 
        "enter": 1, 
        "dream": 1, 
        "essence": 1, 
        "course": 1, 
        "sinning": 1, 
        "lasers": 1, 
        "signs": 1, 
        "hell": 1, 
        "25": 1, 
        "20": 1, 
        "thank": 1, 
        "somewhere": 1, 
        "forms": 1, 
        "willing": 1, 
        "choose": 1, 
        "radical": 1, 
        "defining": 1, 
        "haven't": 1, 
        "versus": 1, 
        "vehicle": 1, 
        "coffee": 1, 
        "greater": 1, 
        "secondarily": 1, 
        "conversations": 1, 
        "Kyle": 1, 
        "band": 1, 
        "front": 1, 
        "realize": 1, 
        "lineage": 1, 
        "likeness": 1, 
        "San": 1, 
        "Terrapin": 1, 
        "slide": 1, 
        "inequality": 1, 
        "truth": 1, 
        "found": 1, 
        "doctrine": 1, 
        "series": 1, 
        "Jabez": 1, 
        "Willard": 1, 
        "idea": 1, 
        "related": 1, 
        "Juan's": 1, 
        "books": 1, 
        "connect": 1, 
        "Peru": 1, 
        "70%": 1, 
        "theologians": 1, 
        "adhere": 1, 
        "acting": 1, 
        "evangeline": 1, 
        "they'll": 1, 
        "surprise": 1, 
        "cause": 1, 
        "shows": 1, 
        "foundation": 1, 
        "philosophy": 1, 
        "risen": 1, 
        "resume": 1, 
        "frank": 1, 
        "standard": 1, 
        "surely": 1, 
        "people's": 1, 
        "rises": 1, 
        "keith": 1, 
        "owners": 1, 
        "ministry": 1, 
        "membership": 1, 
        "motion": 1, 
        "expecting": 1, 
        "massive": 1, 
        "invitation": 1, 
        "Pullman": 1, 
        "blood": 1, 
        "rooted": 1, 
        "omitted": 1, 
        "spiritually": 1, 
        "blank": 1, 
        "sounds": 1, 
        "passes": 1, 
        "management": 1, 
        "introduction": 1, 
        "leading": 1, 
        "caught": 1, 
        "assumption": 1, 
        "rockin": 1, 
        "hundred": 1, 
        "structures": 1, 
        "friend": 1, 
        "gives": 1, 
        "option": 1, 
        "releases": 1, 
        "deconstruct": 1, 
        "moscow": 1, 
        "took": 1, 
        "ridiculous": 1, 
        "eyed": 1, 
        "$7": 1, 
        "representing": 1, 
        "11": 1, 
        "wide": 1, 
        "grew": 1, 
        "14": 1, 
        "showed": 1, 
        "16": 1, 
        "Allah": 1, 
        "seminars": 1, 
        "unmistakably": 1, 
        "speaking": 1, 
        "embody": 1, 
        "Peterson": 1, 
        "Peter": 1, 
        "gathering": 1, 
        "Father": 1, 
        "further": 1, 
        "obviously": 1, 
        "apparently": 1, 
        "viewed": 1, 
        "mountain": 1, 
        "transactional": 1, 
        "responsible": 1, 
        "also": 1, 
        "Galilee": 1, 
        "take": 1, 
        "preacher's": 1, 
        "knew": 1, 
        "systems": 1, 
        "parenting": 1, 
        "significant": 1, 
        "evangelism": 1, 
        "class": 1, 
        "grave": 1, 
        "singer": 1, 
        "neighborhoods": 1, 
        "looked": 1, 
        "points": 1, 
        "trafficking": 1, 
        "clean": 1, 
        "lordship": 1, 
        "effect": 1, 
        "baptized": 1, 
        "walking": 1, 
        "Luoma": 1, 
        "joke's": 1, 
        "participate": 1, 
        "pastoral": 1, 
        "explain": 1, 
        "missiology": 1, 
        "school": 1, 
        "teary": 1, 
        "hope": 1, 
        "I'll": 1, 
        "secular": 1, 
        "bear": 1, 
        "define": 1, 
        "cannot": 1, 
        "joins": 1, 
        "during": 1, 
        "spur": 1, 
        "gem": 1, 
        "sinless": 1, 
        "brain": 1, 
        "children's": 1, 
        "Austen": 1, 
        "Education": 1, 
        "Pacific": 1, 
        "wrote": 1, 
        "multiplying": 1, 
        "aspect": 1, 
        "heightens": 1, 
        "burst": 1, 
        "instituted": 1, 
        "sex": 1, 
        "accused": 1, 
        "desperate": 1, 
        "equip": 1, 
        "operated": 1, 
        "all-encompassing": 1, 
        "instance": 1, 
        "temptation": 1, 
        "Oregon": 1, 
        "goers": 1, 
        "enough": 1, 
        "correctly": 1, 
        "simplest": 1, 
        "drawn": 1, 
        "across": 1, 
        "King": 1, 
        "screen": 1, 
        "key": 1, 
        "missional": 1, 
        "conservativism": 1, 
        "joke": 1, 
        "taking": 1, 
        "according": 1, 
        "flipped": 1, 
        "participating": 1, 
        "theologian": 1, 
        "connection": 1, 
        "expense": 1, 
        "can't": 1, 
        "sweet": 1, 
        "acted": 1, 
        "dudes": 1, 
        "2nd": 1, 
        "represented": 1, 
        "agents": 1, 
        "likes": 1, 
        "laugh": 1, 
        "table": 1, 
        "speak": 1, 
        "pouring": 1, 
        "Monmouth": 1, 
        "verse": 1, 
        "basic": 1, 
        "expected": 1, 
        "relearn": 1, 
        "entered": 1, 
        "meeting": 1, 
        "differently": 1, 
        "families": 1, 
        "turned": 1, 
        "offered": 1, 
        "worker": 1, 
        "permeating": 1, 
        "else": 1, 
        "understand": 1, 
        "catch": 1, 
        "worked": 1, 
        "volunteer": 1, 
        "sound": 1, 
        "homes": 1, 
        "ahead": 1, 
        "worshiping": 1, 
        "budget": 1, 
        "while": 1, 
        "redemptive": 1, 
        "hahaha": 1, 
        "seven": 1, 
        "Drucker": 1, 
        "resident": 1, 
        "Cheney": 1, 
        "workplaces": 1, 
        "defeated": 1, 
        "G": 1, 
        "converts": 1, 
        "bucks": 1, 
        "Easter": 1, 
        "ship": 1, 
        "harsh": 1, 
        "anymore": 1, 
        "began": 1, 
        "reminded": 1, 
        "cross": 1, 
        "figuring": 1, 
        "document": 1, 
        "forgiveness": 1, 
        "conflict": 1, 
        "meets": 1, 
        "sickness": 1, 
        "rezonate": 1, 
        "yesterday": 1, 
        "reigning": 1, 
        "running": 1, 
        "cleaning": 1, 
        "student": 1, 
        "wrongly": 1, 
        "opportunity": 1, 
        "kid": 1, 
        "dark": 1, 
        "lower": 1, 
        "tracking": 1, 
        "modes": 1, 
        "programs": 1, 
        "salvation": 1, 
        "fighting": 1, 
        "Son": 1, 
        "without": 1, 
        "greatest": 1, 
        "organization": 1, 
        "non-believing": 1, 
        "amazed": 1, 
        "left": 1, 
        "couldn't": 1, 
        "sentence": 1, 
        "Lesley": 1, 
        "Sunday": 1, 
        "identify": 1, 
        "fullness": 1, 
        "alternative": 1, 
        "mix": 1, 
        "seems": 1, 
        "unlearn": 1, 
        "lets": 1, 
        "formative": 1, 
        "easy": 1, 
        "build": 1, 
        "real": 1, 
        "vendor": 1, 
        "skeptical": 1, 
        "big": 1, 
        "Camp": 1, 
        "early": 1, 
        "matters": 1, 
        "listening": 1, 
        "equality": 1, 
        "bit": 1, 
        "loss": 1, 
        "lost": 1, 
        "Ellensburg": 1, 
        "shaped": 1, 
        "candy": 1, 
        "manifest": 1, 
        "steps": 1, 
        "laughing": 1, 
        "clay": 1, 
        "simply": 1, 
        "page": 1, 
        "gifted": 1, 
        "often": 1, 
        "deal": 1, 
        "authority": 1, 
        "scatters": 1, 
        "home": 1, 
        "racial": 1, 
        "Eugene": 1, 
        "outs": 1, 
        "Moscow": 1, 
        "overlap": 1, 
        "kingship": 1, 
        "fog": 1, 
        "passion": 1, 
        "Keith": 1, 
        "theological": 1, 
        "School": 1, 
        "blowing": 1, 
        "business": 1, 
        "intimate": 1, 
        "pose": 1, 
        "broken": 1, 
        "host": 1, 
        "super": 1, 
        "30%": 1, 
        "chapter": 1, 
        "pipeline": 1, 
        "Lord's": 1, 
        "getting": 1, 
        "dollars": 1, 
        "months": 1, 
        "recognized": 1, 
        "lifeless": 1, 
        "range": 1, 
        "stand": 1, 
        "raised": 1, 
        "Dallas": 1, 
        "Juan": 1, 
        "doubters": 1, 
        "determine": 1, 
        "pullman": 1, 
        "quit": 1, 
        "Abraham": 1, 
        "area": 1, 
        "transfer": 1, 
        "kidding": 1, 
        "himself": 1, 
        "baptizing": 1, 
        "pastor": 1, 
        "true": 1, 
        "outpost": 1, 
        "happening": 1, 
        "count": 1, 
        "whether": 1, 
        "hosting": 1, 
        "historically": 1, 
        "below": 1, 
        "baptism": 1, 
        "prayed": 1, 
        "recognize": 1, 
        "circus": 1, 
        "linearity": 1, 
        "watches": 1, 
        "Luisa": 1, 
        "rule": 1, 
        "walks": 1, 
        "awhile": 1, 
        "education": 1, 
        "check": 1, 
        "cotton": 1, 
        "Francisco": 1, 
        "incredible": 1, 
        "preachers": 1, 
        "theology": 1, 
        "brothers": 1, 
        "Lost": 1, 
        "monmouth": 1, 
        "students": 1, 
        "dies": 1, 
        "felt": 1, 
        "inherently": 1, 
        "stay": 1, 
        "guy's": 1, 
        "lifelessness": 1, 
        "friends": 1, 
        "meals": 1, 
        "structure": 1, 
        "doubter": 1, 
        "mandates": 1, 
        "prevalent": 1, 
        "age": 1, 
        "Mission": 1, 
        "walked": 1, 
        "Reformation": 1, 
        "doubted": 1, 
        "narrative": 1, 
        "she's": 1, 
        "intimacy": 1, 
        "Oakland": 1, 
        "songs": 1, 
        "issues": 2, 
        "send": 2, 
        "asking": 2, 
        "under": 2, 
        "woman": 2, 
        "7": 2, 
        "sitting": 2, 
        "Pocatello": 2, 
        "worst": 2, 
        "decide": 2, 
        "subservient": 2, 
        "cool": 2, 
        "turns": 2, 
        "relentlessly": 2, 
        "probably": 2, 
        "prioritize": 2, 
        "street": 2, 
        "planters": 2, 
        "deeply": 2, 
        "saw": 2, 
        "apostolic": 2, 
        "goes": 2, 
        "body": 2, 
        "sing": 2, 
        "along": 2, 
        "change": 2, 
        "healthy": 2, 
        "king": 2, 
        "family": 2, 
        "grandma": 2, 
        "Book": 2, 
        "rarely": 2, 
        "charge": 2, 
        "moved": 2, 
        "almost": 2, 
        "door": 2, 
        "biblical": 2, 
        "relax": 2, 
        "brings": 2, 
        "equipped": 2, 
        "known": 2, 
        "behalf": 2, 
        "joyfully": 2, 
        "created": 2, 
        "heard": 2, 
        "assumptions": 2, 
        "rather": 2, 
        "Who": 2, 
        "responsibility": 2, 
        "swayed": 2, 
        "stop": 2, 
        "such": 2, 
        "volleyball": 2, 
        "provide": 2, 
        "ones": 2, 
        "talk": 2, 
        "words": 2, 
        "food": 2, 
        "years": 2, 
        "Texas": 2, 
        "28": 2, 
        "expectations": 2, 
        "Luis": 2, 
        "hidden": 2, 
        "affected": 2, 
        "seeking": 2, 
        "safe": 2, 
        "birth": 2, 
        "break": 2, 
        "sinners": 2, 
        "gets": 2, 
        "went": 2, 
        "meal": 2, 
        "isn't": 2, 
        "girl": 2, 
        "perpetually": 2, 
        "living": 2, 
        "space": 2, 
        "announces": 2, 
        "since": 2, 
        "worshiped": 2, 
        "Word": 2, 
        "bearing": 2, 
        "eternal": 2, 
        "care": 2, 
        "definition": 2, 
        "honest": 2, 
        "Cuevas": 2, 
        "revive": 2, 
        "philosophical": 2, 
        "talked": 2, 
        "open": 2, 
        "story": 2, 
        "fascinating": 2, 
        "obedience": 2, 
        "plentiful": 2, 
        "too": 2, 
        "operates": 2, 
        "institution": 2, 
        "character": 2, 
        "future": 2, 
        "maybe": 2, 
        "Luke": 2, 
        "few": 2, 
        "comedian": 2, 
        "any": 2, 
        "once": 2, 
        "Kevin's": 2, 
        "deploy": 2, 
        "leave": 2, 
        "mouth": 2, 
        "clear": 2, 
        "sometimes": 2, 
        "you'll": 2, 
        "normally": 2, 
        "consumeristic": 2, 
        "daily": 2, 
        "means": 2, 
        "background": 2, 
        "new": 2, 
        "preach": 2, 
        "lots": 2, 
        "supernatural": 2, 
        "reading": 2, 
        "pushing": 2, 
        "recently": 2, 
        "joy": 2, 
        "incarnation": 2, 
        "saves": 2, 
        "job": 2, 
        "cities": 2, 
        "21": 2, 
        "both": 2, 
        "operating": 2, 
        "relevant": 2, 
        "point": 2, 
        "Matthew": 2, 
        "modeling": 2, 
        "raise": 2, 
        "direction": 2, 
        "lived": 2, 
        "sending": 2, 
        "invited": 2, 
        "pray": 2, 
        "shame": 2, 
        "seek": 2, 
        "tells": 2, 
        "member": 2, 
        "followers": 2, 
        "covenant": 2, 
        "who's": 2, 
        "defeat": 2, 
        "uses": 2, 
        "recapture": 2, 
        "thought": 2, 
        "model": 2, 
        "bearer": 2, 
        "money": 2, 
        "valuable": 2, 
        "letting": 2, 
        "thinking": 2, 
        "rose": 2, 
        "Collin": 2, 
        "customers": 2, 
        "showing": 2, 
        "name": 2, 
        "reduces": 2, 
        "benefit": 2, 
        "terminology": 2, 
        "village": 2, 
        "growth": 2, 
        "obsessed": 2, 
        "obey": 2, 
        "David": 2, 
        "pastors": 2, 
        "ok": 2, 
        "anything": 2, 
        "god": 2, 
        "act": 2, 
        "connected": 2, 
        "down": 2, 
        "start": 2, 
        "lot": 2, 
        "forward": 2, 
        "sovereignty": 2, 
        "places": 2, 
        "hand": 2, 
        "problem": 2, 
        "recognizing": 2, 
        "somebody": 2, 
        "imagination": 2, 
        "held": 2, 
        "radically": 2, 
        "commanded": 2, 
        "helping": 2, 
        "intentionally": 2, 
        "having": 2, 
        "helps": 3, 
        "rhythm": 3, 
        "vibes": 3, 
        "mobilize": 3, 
        "leaders": 3, 
        "preacher": 3, 
        "ever": 3, 
        "filled": 3, 
        "social": 3, 
        "study": 3, 
        "followed": 3, 
        "follower": 3, 
        "positive": 3, 
        "timeline": 3, 
        "music": 3, 
        "sharing": 3, 
        "reign": 3, 
        "word": 3, 
        "heart": 3, 
        "share": 3, 
        "something": 3, 
        "Lord": 3, 
        "needs": 3, 
        "planting": 3, 
        "third": 3, 
        "move": 3, 
        "its": 3, 
        "posture": 3, 
        "happened": 3, 
        "grace": 3, 
        "you've": 3, 
        "discipline": 3, 
        "intended": 3, 
        "members": 3, 
        "language": 3, 
        "could": 3, 
        "turn": 3, 
        "already": 3, 
        "welcome": 3, 
        "another": 3, 
        "owner": 3, 
        "neighborhood": 3, 
        "fight": 3, 
        "marriage": 3, 
        "Christian": 3, 
        "relationship": 3, 
        "birthed": 3, 
        "reach": 3, 
        "saying": 3, 
        "contemporary": 3, 
        "watch": 3, 
        "Kingdom": 3, 
        "eat": 3, 
        "meant": 3, 
        "New": 3, 
        "bad": 3, 
        "Missy": 3, 
        "mind": 3, 
        "culture": 3, 
        "led": 3, 
        "away": 3, 
        "please": 3, 
        "wasn't": 3, 
        "supposed": 3, 
        "ends": 3, 
        "unstoppable": 3, 
        "optional": 3, 
        "feeling": 3, 
        "restaurant": 3, 
        "whole": 3, 
        "trust": 3, 
        "strategy": 3, 
        "moment": 3, 
        "receive": 3, 
        "exist": 3, 
        "prayer": 3, 
        "let": 3, 
        "restore": 3, 
        "praying": 3, 
        "yet": 3, 
        "workers": 3, 
        "day": 3, 
        "city": 3, 
        "forces": 3, 
        "game": 3, 
        "whatever": 3, 
        "wanting": 3, 
        "works": 3, 
        "certain": 3, 
        "exists": 3, 
        "happens": 3, 
        "lead": 3, 
        "practical": 3, 
        "learning": 3, 
        "own": 3, 
        "rallied": 3, 
        "owe": 3, 
        "Testament": 3, 
        "house": 3, 
        "ago": 3, 
        "offer": 3, 
        "yeah": 3, 
        "hear": 3, 
        "together": 3, 
        "again": 3, 
        "holy": 3, 
        "reality": 3, 
        "witness": 3, 
        "omission": 3, 
        "Mexican": 3, 
        "leads": 4, 
        "Christians": 4, 
        "churches": 4, 
        "holiness": 4, 
        "did": 4, 
        "Kevin": 4, 
        "giving": 4, 
        "weird": 4, 
        "sermon": 4, 
        "everybody": 4, 
        "use": 4, 
        "live": 4, 
        "beautiful": 4, 
        "times": 4, 
        "native": 4, 
        "coming": 4, 
        "man": 4, 
        "anyone": 4, 
        "over": 4, 
        "through": 4, 
        "looks": 4, 
        "still": 4, 
        "he's": 4, 
        "actually": 4, 
        "primary": 4, 
        "yourself": 4, 
        "huddle": 4, 
        "always": 4, 
        "Holy": 4, 
        "teach": 4, 
        "feel": 4, 
        "number": 4, 
        "done": 4, 
        "comes": 4, 
        "nations": 4, 
        "triune": 4, 
        "Spirit": 4, 
        "nothing": 4, 
        "show": 4, 
        "only": 4, 
        "truly": 4, 
        "stuff": 4, 
        "best": 4, 
        "we've": 4, 
        "each": 4, 
        "conference": 4, 
        "much": 4, 
        "wants": 4, 
        "weeks": 4, 
        "someone": 4, 
        "ready": 4, 
        "different": 4, 
        "views": 4, 
        "same": 4, 
        "evil": 4, 
        "interested": 4, 
        "save": 4, 
        "gift": 4, 
        "absolutely": 4, 
        "oh": 4, 
        "ology": 4, 
        "seeing": 4, 
        "lastly": 4, 
        "becoming": 4, 
        "taught": 4, 
        "gather": 4, 
        "missionaries": 4, 
        "book": 4, 
        "wife": 4, 
        "required": 4, 
        "follow": 5, 
        "bringing": 5, 
        "vampire": 5, 
        "worship": 5, 
        "doesn't": 5, 
        "okay": 5, 
        "grow": 5, 
        "order": 5, 
        "before": 5, 
        "group": 5, 
        "little": 5, 
        "many": 5, 
        "I've": 5, 
        "believe": 5, 
        "she": 5, 
        "last": 5, 
        "help": 5, 
        "couple": 5, 
        "well": 5, 
        "ecclesiology": 5, 
        "let's": 5, 
        "must": 5, 
        "her": 5, 
        "hey": 5, 
        "dead": 5, 
        "outworking": 5, 
        "an": 5, 
        "why": 5, 
        "heaven": 6, 
        "small": 6, 
        "am": 6, 
        "lives": 6, 
        "ultimately": 6, 
        "looking": 6, 
        "ask": 6, 
        "birthday": 6, 
        "become": 6, 
        "heritage": 6, 
        "talking": 6, 
        "towards": 6, 
        "made": 6, 
        "gave": 6, 
        "person": 6, 
        "part": 6, 
        "walk": 6, 
        "everything": 6, 
        "leader": 6, 
        "two": 6, 
        "submit": 6, 
        "work": 6, 
        "today": 6, 
        "preaching": 6, 
        "didn't": 6, 
        "what's": 6, 
        "resonate": 7, 
        "gathered": 7, 
        "desperation": 7, 
        "primarily": 7, 
        "harvest": 7, 
        "operate": 7, 
        "than": 7, 
        "week": 7, 
        "doing": 7, 
        "makers": 7, 
        "play": 7, 
        "room": 7, 
        "scattered": 7, 
        "said": 7, 
        "teaching": 7, 
        "religious": 7, 
        "wherever": 7, 
        "goods": 7, 
        "question": 7, 
        "call": 7, 
        "disciple-making": 8, 
        "long": 8, 
        "trying": 8, 
        "had": 8, 
        "time": 8, 
        "better": 8, 
        "bring": 8, 
        "nature": 8, 
        "most": 8, 
        "great": 8, 
        "terrible": 8, 
        "services": 8, 
        "God's": 8, 
        "now": 8, 
        "tell": 8, 
        "read": 8, 
        "three": 8, 
        "Christology": 8, 
        "power": 8, 
        "even": 9, 
        "mean": 9, 
        "issue": 9, 
        "earth": 9, 
        "around": 9, 
        "very": 9, 
        "back": 9, 
        "Commission": 9, 
        "learn": 9, 
        "happen": 9, 
        "up": 9, 
        "Great": 9, 
        "important": 9, 
        "pay": 10, 
        "maker": 10, 
        "does": 10, 
        "came": 10, 
        "vision": 10, 
        "first": 10, 
        "founding": 10, 
        "him": 10, 
        "gospel": 10, 
        "never": 10, 
        "fun": 10, 
        "got": 10, 
        "they're": 10, 
        "good": 11, 
        "make": 11, 
        "Bible": 11, 
        "guys": 11, 
        "here's": 11, 
        "Josh": 11, 
        "these": 11, 
        "ourselves": 11, 
        "other": 11, 
        "town": 11, 
        "missionary": 12, 
        "spiritual": 12, 
        "here": 12, 
        "put": 12, 
        "view": 12, 
        "every": 12, 
        "how": 12, 
        "which": 12, 
        "kind": 12, 
        "find": 12, 
        "those": 12, 
        "can": 12, 
        "no": 12, 
        "some": 12, 
        "guy": 13, 
        "more": 13, 
        "given": 13, 
        "need": 13, 
        "join": 13, 
        "there's": 13, 
        "been": 13, 
        "gonna": 13, 
        "give": 14, 
        "life": 14, 
        "look": 14, 
        "sent": 14, 
        "listen": 14, 
        "called": 14, 
        "says": 15, 
        "things": 15, 
        "making": 15, 
        "say": 15, 
        "will": 15, 
        "were": 15, 
        "their": 16, 
        "discipleship": 16, 
        "them": 16, 
        "going": 16, 
        "come": 16, 
        "Church": 16, 
        "get": 17, 
        "or": 17, 
        "right": 17, 
        "really": 17, 
        "thing": 18, 
        "Christ": 18, 
        "should": 18, 
        "there": 18, 
        "disciples": 19, 
        "I'm": 19, 
        "my": 19, 
        "by": 20, 
        "from": 20, 
        "think": 20, 
        "being": 20, 
        "one": 21, 
        "into": 21, 
        "just": 21, 
        "we're": 21, 
        "place": 22, 
        "don't": 22, 
        "when": 23, 
        "see": 24, 
        "then": 24, 
        "where": 25, 
        "know": 25, 
        "world": 26, 
        "way": 26, 
        "me": 27, 
        "out": 27, 
        "you're": 28, 
        "who": 29, 
        "go": 29, 
        "at": 29, 
        "because": 30, 
        "his": 30, 
        "want": 31, 
        "he": 31, 
        "has": 31, 
        "all": 32, 
        "about": 32, 
        "kingdom": 32, 
        "us": 33, 
        "your": 34, 
        "our": 35, 
        "on": 35, 
        "it's": 37, 
        "disciple": 37, 
        "would": 38, 
        "do": 40, 
        "with": 41, 
        "they": 43, 
        "have": 43, 
        "people": 43, 
        "as": 43, 
        "for": 44, 
        "that's": 45, 
        "not": 45, 
        "was": 47, 
        "are": 49, 
        "mission": 49, 
        "if": 51, 
        "it": 54, 
        "God": 59, 
        "be": 60, 
        "but": 60, 
        "Jesus": 61, 
        "what": 77, 
        "I": 90, 
        "so": 93, 
        "like": 99, 
        "this": 106, 
        "we": 131, 
        "church": 146, 
        "of": 156, 
        "in": 165, 
        "is": 187, 
        "that": 189, 
        "a": 192, 
        "you": 195, 
        "to": 292, 
        "and": 330, 
        "the": 421
    }, 
    "metadata": {
        "pastor": "Josh Martin", 
        "title": "In _ As It Is In Heaven - Part 4"
    }
}