{
    "data": {
        "code": 1, 
        "tomorrow": 1, 
        "month": 1, 
        "woods": 1, 
        "hating": 1, 
        "hate": 1, 
        "discern": 1, 
        "disciples": 1, 
        "effort": 1, 
        "father": 1, 
        "Christians": 1, 
        "town": 1, 
        "smartphone": 1, 
        "rescue": 1, 
        "song": 1, 
        "hilarious": 1, 
        "wishes": 1, 
        "fan": 1, 
        "affect": 1, 
        "drinking": 1, 
        "non-believer": 1, 
        "minute": 1, 
        "cool": 1, 
        "recreation": 1, 
        "clouds": 1, 
        "rebelling": 1, 
        "holiness": 1, 
        "notes": 1, 
        "shock": 1, 
        "brother": 1, 
        "sand": 1, 
        "excellence": 1, 
        "Ring": 1, 
        "round": 1, 
        "clothes": 1, 
        "leaders": 1, 
        "preached": 1, 
        "sign": 1, 
        "preacher": 1, 
        "burger": 1, 
        "cost": 1, 
        "run": 1, 
        "depression": 1, 
        "shining": 1, 
        "Giants": 1, 
        "appear": 1, 
        "giving": 1, 
        "prostitutes": 1, 
        "enjoyed": 1, 
        "unhelpful": 1, 
        "fist-pump": 1, 
        "above": 1, 
        "public": 1, 
        "told": 1, 
        "body": 1, 
        "degree": 1, 
        "Susan": 1, 
        "arimathea": 1, 
        "sins": 1, 
        "answers": 1, 
        "met": 1, 
        "hopelessness": 1, 
        "active": 1, 
        "newness": 1, 
        "balance": 1, 
        "Joshy": 1, 
        "receive": 1, 
        "leaves": 1, 
        "compliance": 1, 
        "bow": 1, 
        "credit": 1, 
        "accomplished": 1, 
        "descended": 1, 
        "weren't": 1, 
        "pick": 1, 
        "NOT": 1, 
        "someone's": 1, 
        "dad's": 1, 
        "thankfully": 1, 
        "scales": 1, 
        "win": 1, 
        "merely": 1, 
        "Daniels": 1, 
        "Nick": 1, 
        "add-on": 1, 
        "handfuls": 1, 
        "standing": 1, 
        "destination": 1, 
        "Zacchaeus": 1, 
        "eleven": 1, 
        "calm": 1, 
        "taken": 1, 
        "type": 1, 
        "today": 1, 
        "loving": 1, 
        "sort": 1, 
        "gained": 1, 
        "door": 1, 
        "knows": 1, 
        "repentance": 1, 
        "hurt": 1, 
        "Chronicles": 1, 
        "virtue": 1, 
        "amputate": 1, 
        "3:2": 1, 
        "lifestyle": 1, 
        "normative": 1, 
        "easiest": 1, 
        "behalf": 1, 
        "shoot": 1, 
        "none": 1, 
        "G's": 1, 
        "pursue": 1, 
        "pastor's": 1, 
        "past": 1, 
        "pretend": 1, 
        "believer": 1, 
        "obvious": 1, 
        "drops": 1, 
        "marble": 1, 
        "history": 1, 
        "process": 1, 
        "enveloped": 1, 
        "confused": 1, 
        "collision": 1, 
        "purity": 1, 
        "ceremony": 1, 
        "needs": 1, 
        "memorize": 1, 
        "six": 1, 
        "recovers": 1, 
        "Anatomy": 1, 
        "slams": 1, 
        "pure": 1, 
        "struggled": 1, 
        "staying": 1, 
        "blocks": 1, 
        "tried": 1, 
        "may": 1, 
        "philosophy": 1, 
        "counter-intuitive": 1, 
        "wrong": 1, 
        "mad": 1, 
        "Martin": 1, 
        "tasered": 1, 
        "grow": 1, 
        "proclaimed": 1, 
        "third": 1, 
        "Series": 1, 
        "author": 1, 
        "interrupted": 1, 
        "prays": 1, 
        "womanizer": 1, 
        "playing": 1, 
        "wind": 1, 
        "Who": 1, 
        "ladies": 1, 
        "already": 1, 
        "signs": 1, 
        "mentioned": 1, 
        "smiling": 1, 
        "wrought": 1, 
        "1": 1, 
        "group": 1, 
        "thank": 1, 
        "theologian": 1, 
        "masses": 1, 
        "writing": 1, 
        "he'd": 1, 
        "willing": 1, 
        "World": 1, 
        "worshiping": 1, 
        "Moody": 1, 
        "dad": 1, 
        "return": 1, 
        "descendants": 1, 
        "conversations": 1, 
        "underneath": 1, 
        "band": 1, 
        "hands": 1, 
        "idols": 1, 
        "day": 1, 
        "brokenness": 1, 
        "Sunday's": 1, 
        "drop": 1, 
        "rocks": 1, 
        "fisherman": 1, 
        "victory": 1, 
        "tray": 1, 
        "side": 1, 
        "aters": 1, 
        "Arts": 1, 
        "snakes": 1, 
        "generation": 1, 
        "crushing": 1, 
        "idea": 1, 
        "thirteen": 1, 
        "preaching": 1, 
        "year": 1, 
        "girl": 1, 
        "event": 1, 
        "witness": 1, 
        "ultimately": 1, 
        "accomplish": 1, 
        "missed": 1, 
        "sanam": 1, 
        "god": 1, 
        "forty": 1, 
        "Genesis": 1, 
        "strangers": 1, 
        "seriously": 1, 
        "dominated": 1, 
        "fifthly": 1, 
        "heavenly": 1, 
        "Stone": 1, 
        "belief": 1, 
        "dirt": 1, 
        "free": 1, 
        "sneak": 1, 
        "reason": 1, 
        "disposition": 1, 
        "imagine": 1, 
        "enlightened": 1, 
        "wanted": 1, 
        "grab": 1, 
        "thrown": 1, 
        "interaction": 1, 
        "created": 1, 
        "Boston": 1, 
        "times": 1, 
        "PhDs": 1, 
        "biting": 1, 
        "view": 1, 
        "throws": 1, 
        "finest": 1, 
        "subtlety": 1, 
        "Royal": 1, 
        "owned": 1, 
        "strategic": 1, 
        "such": 1, 
        "blows": 1, 
        "cheesy": 1, 
        "heads": 1, 
        "Rumble": 1, 
        "5th": 1, 
        "hangs": 1, 
        "response": 1, 
        "Nintendo": 1, 
        "wrapped": 1, 
        "speaking": 1, 
        "photoshopped": 1, 
        "outsider": 1, 
        "relationship": 1, 
        "reversed": 1, 
        "exactly": 1, 
        "Tebow": 1, 
        "wisdom": 1, 
        "part": 1, 
        "flowers": 1, 
        "10": 1, 
        "13": 1, 
        "15": 1, 
        "showed": 1, 
        "unbelief": 1, 
        "isolation": 1, 
        "gotta": 1, 
        "sycamore": 1, 
        "tree": 1, 
        "bed": 1, 
        "defends": 1, 
        "matter": 1, 
        "classes": 1, 
        "friend": 1, 
        "mulligan": 1, 
        "DL": 1, 
        "regenerated": 1, 
        "gently": 1, 
        "buried": 1, 
        "DTR": 1, 
        "seem": 1, 
        "tells": 1, 
        "viewed": 1, 
        "sell": 1, 
        "Jewish": 1, 
        "-": 1, 
        "also": 1, 
        "forces": 1, 
        "wanting": 1, 
        "enlightens": 1, 
        "explanation": 1, 
        "blue": 1, 
        "begin": 1, 
        "altered": 1, 
        "normal": 1, 
        "connected": 1, 
        "Common": 1, 
        "significant": 1, 
        "Ainsworth": 1, 
        "achievement": 1, 
        "stands": 1, 
        "Photoshop": 1, 
        "special": 1, 
        "cover": 1, 
        "astonishing": 1, 
        "Newhart's": 1, 
        "swipes": 1, 
        "clean": 1, 
        "sinner": 1, 
        "walking": 1, 
        "overpriced": 1, 
        "able": 1, 
        "bright": 1, 
        "darkest": 1, 
        "fine": 1, 
        "find": 1, 
        "syou're": 1, 
        "removed": 1, 
        "earned": 1, 
        "explain": 1, 
        "enough": 1, 
        "brighter": 1, 
        "judged": 1, 
        "enslave": 1, 
        "achieve": 1, 
        "exchanged": 1, 
        "plate": 1, 
        "hit": 1, 
        "upstanding": 1, 
        "watch": 1, 
        "bear": 1, 
        "soon": 1, 
        "feels": 1, 
        "ones": 1, 
        "pretending": 1, 
        "X": 1, 
        "ascended": 1, 
        "restart": 1, 
        "village": 1, 
        "earn": 1, 
        "Thursdays": 1, 
        "method": 1, 
        "twice": 1, 
        "though": 1, 
        "wish": 1, 
        "gospel": 1, 
        "womb": 1, 
        "wrote": 1, 
        "preach": 1, 
        "respond": 1, 
        "whispered": 1, 
        "blew": 1, 
        "fascinating": 1, 
        "burying": 1, 
        "throwing": 1, 
        "st.": 1, 
        "seat": 1, 
        "culture": 1, 
        "actively": 1, 
        "asleep": 1, 
        "anyways": 1, 
        "cheerios": 1, 
        "project": 1, 
        "PV": 1, 
        "fascinated": 1, 
        "favor": 1, 
        "fans": 1, 
        "quickest": 1, 
        "simplest": 1, 
        "Dobie": 1, 
        "knowing": 1, 
        "Leviticus": 1, 
        "attention": 1, 
        "crucified": 1, 
        "punch": 1, 
        "cut": 1, 
        "extent": 1, 
        "received": 1, 
        "accident": 1, 
        "legitimately": 1, 
        "restaurant": 1, 
        "influential": 1, 
        "joke": 1, 
        "taking": 1, 
        "barely": 1, 
        "attributed": 1, 
        "display": 1, 
        "fulfilled": 1, 
        "WWF": 1, 
        "planned": 1, 
        "asked": 1, 
        "wall": 1, 
        "sweet": 1, 
        "Hey": 1, 
        "pole": 1, 
        "written": 1, 
        "couldn't": 1, 
        "church": 1, 
        "trust": 1, 
        "speak": 1, 
        "blinded": 1, 
        "worthless": 1, 
        "raise": 1, 
        "addition": 1, 
        "responds": 1, 
        "quickly": 1, 
        "cared": 1, 
        "describes": 1, 
        "expected": 1, 
        "twenty-eight": 1, 
        "woke": 1, 
        "describe": 1, 
        "shopping": 1, 
        "harshest": 1, 
        "else": 1, 
        "lift": 1, 
        "lives": 1, 
        "deep": 1, 
        "Adiemus": 1, 
        "realities": 1, 
        "modern-day": 1, 
        "That's": 1, 
        "sound": 1, 
        "memorized": 1, 
        "harder": 1, 
        "cast": 1, 
        "College": 1, 
        "shall": 1, 
        "Church": 1, 
        "Cold": 1, 
        "voice": 1, 
        "defending": 1, 
        "changed": 1, 
        "century": 1, 
        "almost": 1, 
        "Edwards": 1, 
        "taser": 1, 
        "sting": 1, 
        "Tim": 1, 
        "sudden": 1, 
        "owes": 1, 
        "snuck": 1, 
        "ready": 1, 
        "somebody": 1, 
        "worry": 1, 
        "$28": 1, 
        "trial": 1, 
        "pay": 1, 
        "amount": 1, 
        "beside": 1, 
        "checking": 1, 
        "big": 1, 
        "reminder": 1, 
        "events": 1, 
        "meets": 1, 
        "emotionally": 1, 
        "assignment": 1, 
        "IR": 1, 
        "hang": 1, 
        "Steve": 1, 
        "hand": 1, 
        "usually": 1, 
        "running": 1, 
        "fruit": 1, 
        "John's": 1, 
        "totally": 1, 
        "he'll": 1, 
        "lower": 1, 
        "mother's": 1, 
        "i": 1, 
        "Jerusalem's": 1, 
        "anybody": 1, 
        "cheer": 1, 
        "without": 1, 
        "reward": 1, 
        "left": 1, 
        "listening": 1, 
        "nicknames": 1, 
        "money": 1, 
        "Deuteronomy": 1, 
        "sleepy": 1, 
        "quotes": 1, 
        "Daniel": 1, 
        "kill": 1, 
        "fishing": 1, 
        "Scripture": 1, 
        "yet": 1, 
        "renewed": 1, 
        "wee": 1, 
        "sky": 1, 
        "except": 1, 
        "color": 1, 
        "testimonies": 1, 
        "citizen": 1, 
        "moody": 1, 
        "ought": 1, 
        "Oh": 1, 
        "conformed": 1, 
        "James": 1, 
        "couple": 1, 
        "Roberts": 1, 
        "game": 1, 
        "inflation": 1, 
        "background": 1, 
        "bit": 1, 
        "execution": 1, 
        "Engineers": 1, 
        "rotate": 1, 
        "gift": 1, 
        "follows": 1, 
        "gifted": 1, 
        "lose": 1, 
        "become": 1, 
        "works": 1, 
        "eternity": 1, 
        "persecuting": 1, 
        "sends": 1, 
        "Sun": 1, 
        "interact": 1, 
        "who've": 1, 
        "daylight": 1, 
        "Jonathan": 1, 
        "thinks": 1, 
        "HD": 1, 
        "enemies": 1, 
        "divine": 1, 
        "rolodex": 1, 
        "memories": 1, 
        "absolutely": 1, 
        "separate": 1, 
        "moon": 1, 
        "Supercenter": 1, 
        "asking": 1, 
        "unclean": 1, 
        "theological": 1, 
        "football": 1, 
        "eating": 1, 
        "equivalent": 1, 
        "stage": 1, 
        "hsihu": 1, 
        "stone": 1, 
        "ok": 1, 
        "boards": 1, 
        "getting": 1, 
        "dollars": 1, 
        "graduation": 1, 
        "regenerate": 1, 
        "restoration": 1, 
        "greatly": 1, 
        "stoked": 1, 
        "introduced": 1, 
        "equally": 1, 
        "enduring": 1, 
        "image": 1, 
        "primarily": 1, 
        "Exodus": 1, 
        "how's": 1, 
        "insider": 1, 
        "Ness": 1, 
        "thirdly": 1, 
        "Bachelor": 1, 
        "joseph": 1, 
        "died": 1, 
        "stars": 1, 
        "forward": 1, 
        "November": 1, 
        "buy": 1, 
        "Version": 1, 
        "complete": 1, 
        "form": 1, 
        "poster": 1, 
        "properly": 1, 
        "solar": 1, 
        "sneaks": 1, 
        "trying": 1, 
        "buying": 1, 
        "happening": 1, 
        "reset": 1, 
        "sermons": 1, 
        "social": 1, 
        "um": 1, 
        "idol": 1, 
        "stories": 1, 
        "7:15": 1, 
        "codes": 1, 
        "faking": 1, 
        "grass": 1, 
        "called": 1, 
        "connect": 1, 
        "prayed": 1, 
        "associated": 1, 
        "recognize": 1, 
        "exceeded": 1, 
        "Josh": 1, 
        "Thursday": 1, 
        "born-again": 1, 
        "fly": 1, 
        "moves": 1, 
        "plaques": 1, 
        "physical": 1, 
        "Haines": 1, 
        "Jake": 1, 
        "nonetheless": 1, 
        "TV": 1, 
        "compel": 1, 
        "scholarly": 1, 
        "reality": 1, 
        "field": 1, 
        "hoopla": 1, 
        "nice": 1, 
        "poor": 1, 
        "star": 1, 
        "o'clock": 1, 
        "felt": 1, 
        "problems": 1, 
        "carpenter": 1, 
        "stay": 1, 
        "dominates": 1, 
        "kinda": 1, 
        "studied": 1, 
        "weekend": 1, 
        "structure": 1, 
        "building": 1, 
        "furthest": 1, 
        "stirred": 1, 
        "land": 1, 
        "applause": 1, 
        "wife": 1, 
        "walked": 1, 
        "affects": 1, 
        "she's": 1, 
        "hello": 1, 
        "restored": 1, 
        "once": 1, 
        "leads": 2, 
        "chair": 2, 
        "resonate": 2, 
        "godless": 2, 
        "send": 2, 
        "spirit": 2, 
        "answered": 2, 
        "glad": 2, 
        "late": 2, 
        "worth": 2, 
        "enslaved": 2, 
        "four": 2, 
        "turns": 2, 
        "leave": 2, 
        "team": 2, 
        "spiritual": 2, 
        "talked": 2, 
        "appearance": 2, 
        "second": 2, 
        "idolatry": 2, 
        "saved": 2, 
        "ground": 2, 
        "ever": 2, 
        "filled": 2, 
        "full": 2, 
        "behavior": 2, 
        "water": 2, 
        "making": 2, 
        "along": 2, 
        "aren't": 2, 
        "Jews": 2, 
        "energizes": 2, 
        "fell": 2, 
        "Book": 2, 
        "bury": 2, 
        "themselves": 2, 
        "until": 2, 
        "brings": 2, 
        "Eve": 2, 
        "women": 2, 
        "defines": 2, 
        "language": 2, 
        "middle": 2, 
        "hope": 2, 
        "meet": 2, 
        "crazy": 2, 
        "believeth": 2, 
        "protects": 2, 
        "sense": 2, 
        "answer": 2, 
        "speaks": 2, 
        "beauty": 2, 
        "advice": 2, 
        "law": 2, 
        "shady": 2, 
        "linen": 2, 
        "cannot": 2, 
        "definitions": 2, 
        "creation": 2, 
        "move": 2, 
        "cross": 2, 
        "course": 2, 
        "deepest": 2, 
        "complicate": 2, 
        "choose": 2, 
        "coffee": 2, 
        "someone": 2, 
        "fancy": 2, 
        "jesus": 2, 
        "sinners": 2, 
        "Supreme": 2, 
        "name": 2, 
        "always": 2, 
        "found": 2, 
        "burial": 2, 
        "whosoever": 2, 
        "books": 2, 
        "since": 2, 
        "believers": 2, 
        "7": 2, 
        "upon": 2, 
        "lawless": 2, 
        "textbook": 2, 
        "creates": 2, 
        "obscure": 2, 
        "His": 2, 
        "app": 2, 
        "radical": 2, 
        "fantasy": 2, 
        "spiritually": 2, 
        "earthly": 2, 
        "miss": 2, 
        "horse": 2, 
        "Narnia": 2, 
        "pharisees": 2, 
        "needed": 2, 
        "2": 2, 
        "too": 2, 
        "eyes": 2, 
        "took": 2, 
        "begotten": 2, 
        "herself": 2, 
        "11": 2, 
        "light": 2, 
        "humble": 2, 
        "Court": 2, 
        "shocked": 2, 
        "towards": 2, 
        "enter": 2, 
        "paid": 2, 
        "late-night": 2, 
        "talk": 2, 
        "liberate": 2, 
        "away": 2, 
        "fact": 2, 
        "overachiever": 2, 
        "text": 2, 
        "fear": 2, 
        "henceforth": 2, 
        "adoration": 2, 
        "justice": 2, 
        "true": 2, 
        "offensive": 2, 
        "won": 2, 
        "pretty": 2, 
        "sporting": 2, 
        "expectation": 2, 
        "shown": 2, 
        "glory": 2, 
        "still": 2, 
        "achiever": 2, 
        "exchange": 2, 
        "freshmen": 2, 
        "impute": 2, 
        "uh": 2, 
        "tricky": 2, 
        "amen": 2, 
        "screen": 2, 
        "rules": 2, 
        "21": 2, 
        "equal": 2, 
        "a.m.": 2, 
        "context": 2, 
        "baseball": 2, 
        "whole": 2, 
        "premise": 2, 
        "others": 2, 
        "walk": 2, 
        "boat": 2, 
        "trajectory": 2, 
        "Numbers": 2, 
        "sinful": 2, 
        "rocking": 2, 
        "careful": 2, 
        "Old": 2, 
        "unlike": 2, 
        "straight": 2, 
        "near": 2, 
        "smart": 2, 
        "fun": 2, 
        "against": 2, 
        "Israel": 2, 
        "cuz": 2, 
        "seeking": 2, 
        "rebellion": 2, 
        "modification": 2, 
        "gets": 2, 
        "obeyed": 2, 
        "spices": 2, 
        "traps": 2, 
        "makes": 2, 
        "forever21": 2, 
        "deserve": 2, 
        "flesh": 2, 
        "yes": 2, 
        "add": 2, 
        "transformation": 2, 
        "real": 2, 
        "who's": 2, 
        "possible": 2, 
        "period": 2, 
        "five": 2, 
        "terminology": 2, 
        "Sanhedrin": 2, 
        "dead": 2, 
        "kinds": 2, 
        "throughout": 2, 
        "generations": 2, 
        "leader": 2, 
        "He": 2, 
        "everybody": 2, 
        "trees": 2, 
        "broken": 2, 
        "super": 2, 
        "throw": 2, 
        "months": 2, 
        "often": 2, 
        "friends": 2, 
        "available": 2, 
        "long": 2, 
        "ago": 2, 
        "brand": 2, 
        "Austin": 2, 
        "junior": 2, 
        "they're": 2, 
        "made": 2, 
        "places": 2, 
        "engage": 2, 
        "affection": 2, 
        "sovereign": 2, 
        "holding": 2, 
        "better": 2, 
        "test": 2, 
        "draw": 2, 
        "reorientation": 2, 
        "Cheerios": 2, 
        "starting": 2, 
        "whoever": 3, 
        "baby": 3, 
        "show": 3, 
        "gracious": 3, 
        "fall": 3, 
        "oftentimes": 3, 
        "heaven": 3, 
        "quick": 3, 
        "core": 3, 
        "awake": 3, 
        "emotions": 3, 
        "boy": 3, 
        "completely": 3, 
        "tracking": 3, 
        "order": 3, 
        "singing": 3, 
        "believes": 3, 
        "believed": 3, 
        "serpent": 3, 
        "high": 3, 
        "every": 3, 
        "bag": 3, 
        "simple": 3, 
        "condemn": 3, 
        "stand": 3, 
        "changes": 3, 
        "help": 3, 
        "rabbi": 3, 
        "level": 3, 
        "Him": 3, 
        "school": 3, 
        "shocking": 3, 
        "house": 3, 
        "try": 3, 
        "little": 3, 
        "execute": 3, 
        "rot": 3, 
        "work": 3, 
        "conversation": 3, 
        "fallen": 3, 
        "number": 3, 
        "done": 3, 
        "take": 3, 
        "obedience": 3, 
        "anyone": 3, 
        "behind": 3, 
        "college": 3, 
        "gentle": 3, 
        "seen": 3, 
        "build": 3, 
        "75": 3, 
        "Augustine": 3, 
        "sometimes": 3, 
        "face": 3, 
        "ways": 3, 
        "I'll": 3, 
        "scripture": 3, 
        "years": 3, 
        "following": 3, 
        "16": 3, 
        "best": 3, 
        "desires": 3, 
        "handed": 3, 
        "reading": 3, 
        "gives": 3, 
        "religious": 3, 
        "news": 3, 
        "2:00": 3, 
        "point": 3, 
        "much": 3, 
        "differently": 3, 
        "wants": 3, 
        "interrupts": 3, 
        "education": 3, 
        "make": 3, 
        "we'd": 3, 
        "week": 3, 
        "condemnation": 3, 
        "dads": 3, 
        "verses": 3, 
        "graduate": 3, 
        "nicodemus": 3, 
        "realize": 3, 
        "gave": 3, 
        "Savior": 3, 
        "Pharisees": 3, 
        "judge": 3, 
        "bro": 3, 
        "pounds": 3, 
        "Pharisee": 3, 
        "power": 3, 
        "graduated": 3, 
        "anything": 3, 
        "supposed": 3, 
        "tomb": 3, 
        "Lord": 3, 
        "own": 3, 
        "wilderness": 3, 
        "series": 3, 
        "believe": 3, 
        "hear": 3, 
        "salvation": 3, 
        "recreating": 3, 
        "New": 3, 
        "happen": 3, 
        "looked": 3, 
        "incredibly": 3, 
        "let's": 3, 
        "write": 3, 
        "sorry": 4, 
        "hard": 4, 
        "lights": 4, 
        "learned": 4, 
        "teacher": 4, 
        "change": 4, 
        "named": 4, 
        "moral": 4, 
        "frankly": 4, 
        "sent": 4, 
        "live": 4, 
        "given": 4, 
        "soul": 4, 
        "starts": 4, 
        "awesome": 4, 
        "huge": 4, 
        "men": 4, 
        "King": 4, 
        "allow": 4, 
        "longer": 4, 
        "numbers": 4, 
        "birth": 4, 
        "isn't": 4, 
        "okay": 4, 
        "care": 4, 
        "seemed": 4, 
        "coming": 4, 
        "another": 4, 
        "checklist": 4, 
        "probably": 4, 
        "PDA": 4, 
        "14": 4, 
        "PhD": 4, 
        "himself": 4, 
        "self": 4, 
        "death": 4, 
        "class": 4, 
        "professor": 4, 
        "its": 4, 
        "heady": 4, 
        "knowledge": 4, 
        "bad": 4, 
        "birds": 4, 
        "around": 4, 
        "reminded": 4, 
        "identity": 4, 
        "affected": 4, 
        "God's": 4, 
        "human": 4, 
        "thinking": 4, 
        "knew": 4, 
        "maybe": 4, 
        "Moses": 4, 
        "deal": 4, 
        "oh": 4, 
        "imputed": 4, 
        "quit": 4, 
        "word": 4, 
        "snake": 4, 
        "freedom": 4, 
        "Christianity": 4, 
        "or": 4, 
        "son": 4, 
        "down": 4, 
        "lastly": 4, 
        "dangerous": 4, 
        "you'll": 4, 
        "sure": 4, 
        "perish": 4, 
        "looking": 5, 
        "young": 5, 
        "very": 5, 
        "self-righteousness": 5, 
        "yourself": 5, 
        "eternal": 5, 
        "great": 5, 
        "use": 5, 
        "takes": 5, 
        "end": 5, 
        "turn": 5, 
        "lot": 5, 
        "their": 5, 
        "words": 5, 
        "later": 5, 
        "mean": 5, 
        "unless": 5, 
        "ask": 5, 
        "than": 5, 
        "saw": 5, 
        "any": 5, 
        "hearts": 5, 
        "brought": 5, 
        "based": 5, 
        "king": 5, 
        "familiar": 5, 
        "check": 5, 
        "last": 5, 
        "whatever": 5, 
        "three": 5, 
        "understand": 5, 
        "kingdom": 5, 
        "anymore": 5, 
        "listen": 5, 
        "well": 5, 
        "person": 5, 
        "we've": 5, 
        "desire": 5, 
        "bottom": 5, 
        "happened": 5, 
        "freshman": 5, 
        "I'd": 5, 
        "different": 5, 
        "what's": 5, 
        "track": 5, 
        "Testament": 5, 
        "intimacy": 5, 
        "rich": 5, 
        "results": 6, 
        "must": 6, 
        "saying": 6, 
        "heard": 6, 
        "experience": 6, 
        "sermon": 6, 
        "next": 6, 
        "looks": 6, 
        "more": 6, 
        "die": 6, 
        "used": 6, 
        "solution": 6, 
        "issue": 6, 
        "Man": 6, 
        "Christian": 6, 
        "read": 6, 
        "daughter": 6, 
        "most": 6, 
        "said": 6, 
        "forever": 6, 
        "righteousness": 6, 
        "action": 6, 
        "unrighteousness": 6, 
        "went": 6, 
        "am": 6, 
        "offers": 6, 
        "save": 6, 
        "shocks": 6, 
        "happens": 6, 
        "worship": 6, 
        "obey": 6, 
        "nothing": 6, 
        "problem": 6, 
        "going": 7, 
        "inner": 7, 
        "didn't": 7, 
        "information": 7, 
        "remember": 7, 
        "through": 7, 
        "good": 7, 
        "everyone": 7, 
        "morning": 7, 
        "put": 7, 
        "nature": 7, 
        "mind": 7, 
        "bring": 7, 
        "Peter": 7, 
        "here's": 7, 
        "she": 7, 
        "I've": 7, 
        "Adam": 7, 
        "tell": 7, 
        "lifted": 7, 
        "picture": 7, 
        "two": 8, 
        "3": 8, 
        "Holy": 8, 
        "truly": 8, 
        "shows": 8, 
        "first": 8, 
        "only": 8, 
        "famous": 8, 
        "learn": 8, 
        "kind": 8, 
        "can't": 8, 
        "talking": 8, 
        "thought": 8, 
        "old": 8, 
        "chapter": 8, 
        "night": 8, 
        "actually": 8, 
        "alive": 8, 
        "came": 8, 
        "follow": 9, 
        "doing": 9, 
        "Son": 9, 
        "offer": 9, 
        "give": 9, 
        "should": 9, 
        "these": 9, 
        "will": 9, 
        "book": 9, 
        "everything": 10, 
        "ruler": 10, 
        "adultery": 10, 
        "even": 10, 
        "really": 10, 
        "which": 10, 
        "place": 10, 
        "same": 10, 
        "other": 10, 
        "Spirit": 10, 
        "caught": 10, 
        "does": 11, 
        "woman": 11, 
        "pray": 11, 
        "truth": 11, 
        "could": 11, 
        "has": 11, 
        "room": 11, 
        "loved": 11, 
        "back": 11, 
        "guy": 11, 
        "thing": 12, 
        "doesn't": 12, 
        "into": 12, 
        "before": 12, 
        "his": 12, 
        "look": 12, 
        "off": 12, 
        "Paul": 12, 
        "people": 12, 
        "why": 12, 
        "guys": 13, 
        "3:16": 13, 
        "you've": 13, 
        "stuff": 13, 
        "yeah": 13, 
        "been": 13, 
        "her": 13, 
        "something": 13, 
        "had": 14, 
        "how": 14, 
        "our": 14, 
        "there's": 14, 
        "see": 14, 
        "here": 14, 
        "way": 14, 
        "might": 14, 
        "sin": 14, 
        "were": 15, 
        "tonight": 15, 
        "say": 15, 
        "time": 15, 
        "religion": 15, 
        "them": 15, 
        "never": 15, 
        "after": 15, 
        "did": 16, 
        "story": 16, 
        "then": 16, 
        "need": 16, 
        "we're": 16, 
        "those": 17, 
        "being": 17, 
        "things": 17, 
        "no": 18, 
        "life": 18, 
        "comes": 18, 
        "as": 18, 
        "who": 18, 
        "now": 19, 
        "go": 19, 
        "from": 19, 
        "got": 19, 
        "where": 19, 
        "there": 19, 
        "Bible": 20, 
        "love": 20, 
        "regeneration": 20, 
        "means": 20, 
        "an": 20, 
        "hey": 20, 
        "would": 21, 
        "man": 22, 
        "they": 22, 
        "gonna": 22, 
        "world": 22, 
        "because": 22, 
        "over": 23, 
        "some": 23, 
        "out": 23, 
        "verse": 25, 
        "John": 25, 
        "by": 25, 
        "right": 25, 
        "my": 26, 
        "get": 26, 
        "goes": 26, 
        "one": 27, 
        "come": 28, 
        "up": 28, 
        "when": 29, 
        "us": 29, 
        "he's": 30, 
        "about": 30, 
        "heart": 31, 
        "think": 32, 
        "Christ": 32, 
        "just": 33, 
        "him": 33, 
        "do": 33, 
        "all": 34, 
        "you're": 35, 
        "I'm": 36, 
        "says": 36, 
        "it's": 36, 
        "are": 38, 
        "want": 40, 
        "don't": 40, 
        "can": 41, 
        "me": 42, 
        "start": 42, 
        "know": 43, 
        "was": 43, 
        "on": 46, 
        "with": 49, 
        "your": 49, 
        "that's": 50, 
        "if": 51, 
        "God": 54, 
        "at": 54, 
        "again": 56, 
        "Jesus": 57, 
        "Nicodemus": 57, 
        "born": 58, 
        "for": 61, 
        "not": 62, 
        "we": 63, 
        "be": 63, 
        "have": 67, 
        "what": 68, 
        "new": 68, 
        "but": 74, 
        "like": 83, 
        "it": 88, 
        "he": 105, 
        "so": 115, 
        "a": 143, 
        "this": 145, 
        "of": 161, 
        "in": 162, 
        "is": 163, 
        "I": 170, 
        "that": 197, 
        "to": 267, 
        "and": 282, 
        "you": 315, 
        "the": 333
    }, 
    "metadata": {
        "pastor": "Josh Martin", 
        "title": "Starting Over _ Josh Martin"
    }
}