{
    "data": {
        "forget": 1, 
        "remarkable": 1, 
        "assembles": 1, 
        "leads": 1, 
        "battle": 1, 
        "follow": 1, 
        "Moses": 1, 
        "decisions": 1, 
        "relationships": 1, 
        "whose": 1, 
        "terms": 1, 
        "young": 1, 
        "finally": 1, 
        "helps": 1, 
        "subsides": 1, 
        "women": 1, 
        "sent": 1, 
        "returned": 1, 
        "sitting": 1, 
        "far": 1, 
        "choice": 1, 
        "sons": 1, 
        "difference": 1, 
        "minute": 1, 
        "oftentimes": 1, 
        "we'll": 1, 
        "marry": 1, 
        "they've": 1, 
        "sang": 1, 
        "race": 1, 
        "recall": 1, 
        "challenge": 1, 
        "i'll": 1, 
        "you'd": 1, 
        "bedroom": 1, 
        "sign": 1, 
        "chopping": 1, 
        "errors": 1, 
        "power": 1, 
        "sun": 1, 
        "celebrated": 1, 
        "revolutionize": 1, 
        "emotions": 1, 
        "overwhelmed": 1, 
        "current": 1, 
        "remembered": 1, 
        "version": 1, 
        "timeline": 1, 
        "net": 1, 
        "Swift": 1, 
        "exercise": 1, 
        "told": 1, 
        "understanding": 1, 
        "ver": 1, 
        "strong": 1, 
        "box": 1, 
        "sending": 1, 
        "search": 1, 
        "kids": 1, 
        "ahead": 1, 
        "leaves": 1, 
        "guilty": 1, 
        "jungles": 1, 
        "options": 1, 
        "replace": 1, 
        "brought": 1, 
        "ninety": 1, 
        "pulls": 1, 
        "crisis": 1, 
        "Ecuador": 1, 
        "takes": 1, 
        "prove": 1, 
        "remains": 1, 
        "dude": 1, 
        "taken": 1, 
        "believing": 1, 
        "25th": 1, 
        "speaking": 1, 
        "missionaries": 1, 
        "what's-her-name": 1, 
        "uncle's": 1, 
        "snarky": 1, 
        "landed": 1, 
        "Chronicles": 1, 
        "90": 1, 
        "hold": 1, 
        "unpack": 1, 
        "sorry": 1, 
        "glad": 1, 
        "David's": 1, 
        "join": 1, 
        "room": 1, 
        "middle": 1, 
        "science": 1, 
        "equation": 1, 
        "soul": 1, 
        "Orion": 1, 
        "anywhere": 1, 
        "Christians": 1, 
        "learn": 1, 
        "following": 1, 
        "meet": 1, 
        "control": 1, 
        "pieces": 1, 
        "ready": 1, 
        "caution": 1, 
        "evidently": 1, 
        "Walter": 1, 
        "huge": 1, 
        "productive": 1, 
        "provide": 1, 
        "damage": 1, 
        "located": 1, 
        "tile": 1, 
        "pizza": 1, 
        "buildings": 1, 
        "watch": 1, 
        "dive": 1, 
        "finality": 1, 
        "mad": 1, 
        "date": 1, 
        "bleak": 1, 
        "third": 1, 
        "lines": 1, 
        "element": 1, 
        "expenses": 1, 
        "keeps": 1, 
        "Kings": 1, 
        "playing": 1, 
        "aqha": 1, 
        "words": 1, 
        "forfeit": 1, 
        "doorknob": 1, 
        "trade": 1, 
        "course": 1, 
        "scientist": 1, 
        "thesis": 1, 
        "shreds": 1, 
        "existence": 1, 
        "White": 1, 
        "still": 1, 
        "Texas": 1, 
        "bunch": 1, 
        "avid": 1, 
        "group": 1, 
        "thank": 1, 
        "fit": 1, 
        "till": 1, 
        "torn": 1, 
        "29": 1, 
        "he'd": 1, 
        "willing": 1, 
        "vast": 1, 
        "fool": 1, 
        "descriptive": 1, 
        "food": 1, 
        "introduce": 1, 
        "break": 1, 
        "band": 1, 
        "wealthy": 1, 
        "front": 1, 
        "lineage": 1, 
        "worlds": 1, 
        "servant": 1, 
        "fully": 1, 
        "drop": 1, 
        "truth": 1, 
        "isn't": 1, 
        "mean": 1, 
        "individually": 1, 
        "week": 1, 
        "3,000": 1, 
        "everyone": 1, 
        "financial": 1, 
        "formulate": 1, 
        "midlife": 1, 
        "strip": 1, 
        "700": 1, 
        "yeah": 1, 
        "celebrating": 1, 
        "we'd": 1, 
        "measure": 1, 
        "hurries": 1, 
        "worried": 1, 
        "accomplish": 1, 
        "god": 1, 
        "since": 1, 
        "great-great-grandparents": 1, 
        "turnigy": 1, 
        "sociological": 1, 
        "mate": 1, 
        "they'll": 1, 
        "scares": 1, 
        "hull": 1, 
        "team": 1, 
        "eternal": 1, 
        "extraordinary": 1, 
        "completely": 1, 
        "necessarily": 1, 
        "estimate": 1, 
        "personalities": 1, 
        "amped": 1, 
        "yard": 1, 
        "times": 1, 
        "turn": 1, 
        "threat": 1, 
        "pilots": 1, 
        "top": 1, 
        "adventure": 1, 
        "chopped": 1, 
        "yourself": 1, 
        "spinning": 1, 
        "sounds": 1, 
        "tangle": 1, 
        "miss": 1, 
        "koi": 1, 
        "given": 1, 
        "Narnia": 1, 
        "leverage": 1, 
        "service": 1, 
        "Eastern": 1, 
        "st.": 1, 
        "needed": 1, 
        "attack": 1, 
        "twenties": 1, 
        "tragic": 1, 
        "saint": 1, 
        "master": 1, 
        "ferocity": 1, 
        "store": 1, 
        "pervasive": 1, 
        "hypothetical": 1, 
        "explanation": 1, 
        "exactly": 1, 
        "wasted": 1, 
        "that'll": 1, 
        "herself": 1, 
        "wide": 1, 
        "13": 1, 
        "slack": 1, 
        "gotten": 1, 
        "linchpin": 1, 
        "nations": 1, 
        "shower": 1, 
        "architect": 1, 
        "endure": 1, 
        "video": 1, 
        "seminary": 1, 
        "wakes": 1, 
        "modern": 1, 
        "Father": 1, 
        "spectrum": 1, 
        "seen": 1, 
        "sounding": 1, 
        "afraid": 1, 
        "useless": 1, 
        "circles": 1, 
        "added": 1, 
        "multiple": 1, 
        "ambulance": 1, 
        "reach": 1, 
        "resonates": 1, 
        "where's": 1, 
        "simplify": 1, 
        "slowest": 1, 
        "superhero": 1, 
        "The": 1, 
        "Paige": 1, 
        "deny": 1, 
        "especially": 1, 
        "average": 1, 
        "camp": 1, 
        "request": 1, 
        "face": 1, 
        "looked": 1, 
        "principle": 1, 
        "businessman": 1, 
        "typically": 1, 
        "shoutout": 1, 
        "walking": 1, 
        "selection": 1, 
        "gibeon": 1, 
        "show": 1, 
        "anyway": 1, 
        "ending": 1, 
        "bring": 1, 
        "planning": 1, 
        "Under": 1, 
        "pleased": 1, 
        "impact": 1, 
        "unkind": 1, 
        "chiding": 1, 
        "justice": 1, 
        "spirituality": 1, 
        "Solomon's": 1, 
        "anyone's": 1, 
        "circle": 1, 
        "scripture": 1, 
        "Psalms": 1, 
        "stop": 1, 
        "expectation": 1, 
        "famous": 1, 
        "closely": 1, 
        "during": 1, 
        "revolutionizes": 1, 
        "14": 1, 
        "reveal": 1, 
        "salman's": 1, 
        "held": 1, 
        "calling": 1, 
        "bad": 1, 
        "miles": 1, 
        "common": 1, 
        "2418": 1, 
        "wrote": 1, 
        "cynical": 1, 
        "burst": 1, 
        "labors": 1, 
        "Rings": 1, 
        "sex": 1, 
        "legacy": 1, 
        "college": 1, 
        "generational": 1, 
        "close": 1, 
        "news": 1, 
        "discernment": 1, 
        "wonder": 1, 
        "satisfying": 1, 
        "836": 1, 
        "probable": 1, 
        "closet": 1, 
        "preside": 1, 
        "wow": 1, 
        "purses": 1, 
        "favor": 1, 
        "pump": 1, 
        "progress": 1, 
        "sold": 1, 
        "ends": 1, 
        "narnia": 1, 
        "Central": 1, 
        "wears": 1, 
        "buckets": 1, 
        "attention": 1, 
        "key": 1, 
        "distinguish": 1, 
        "20": 1, 
        "nation's": 1, 
        "cop": 1, 
        "cos": 1, 
        "figured": 1, 
        "region": 1, 
        "enabling": 1, 
        "connection": 1, 
        "became": 1, 
        "missionary": 1, 
        "forgotten": 1, 
        "wheels": 1, 
        "aqus": 1, 
        "relevant": 1, 
        "Christ": 1, 
        "appeared": 1, 
        "great-grandparents": 1, 
        "village": 1, 
        "whispering": 1, 
        "throughout": 1, 
        "raise": 1, 
        "futility": 1, 
        "secret": 1, 
        "slowly": 1, 
        "waste": 1, 
        "woke": 1, 
        "sniffling": 1, 
        "wants": 1, 
        "direction": 1, 
        "cleese": 1, 
        "both": 1, 
        "painted": 1, 
        "blessing": 1, 
        "mocking": 1, 
        "awake": 1, 
        "worked": 1, 
        "diffuse": 1, 
        "righteous": 1, 
        "humanity": 1, 
        "forgetting": 1, 
        "replaced": 1, 
        "careers": 1, 
        "margin": 1, 
        "expending": 1, 
        "sleeping": 1, 
        "characterize": 1, 
        "itself": 1, 
        "comparative": 1, 
        "rid": 1, 
        "greater": 1, 
        "funny": 1, 
        "pay": 1, 
        "reminded": 1, 
        "beside": 1, 
        "parts": 1, 
        "finite": 1, 
        "spears": 1, 
        "daughters": 1, 
        "wheel": 1, 
        "keys": 1, 
        "hang": 1, 
        "kill": 1, 
        "fruit": 1, 
        "uses": 1, 
        "yours": 1, 
        "totally": 1, 
        "he'll": 1, 
        "scenario": 1, 
        "purposeful": 1, 
        "theology": 1, 
        "contact": 1, 
        "chronicles": 1, 
        "sets": 1, 
        "y": 1, 
        "Jerusalem": 1, 
        "pooping": 1, 
        "bodies": 1, 
        "she'll": 1, 
        "money": 1, 
        "sporting": 1, 
        "hands": 1, 
        "verses": 1, 
        "foot": 1, 
        "recollection": 1, 
        "fateful": 1, 
        "questions": 1, 
        "Heavenly": 1, 
        "yes": 1, 
        "praying": 1, 
        "cut": 1, 
        "longitudinal": 1, 
        "seems": 1, 
        "reasons": 1, 
        "add": 1, 
        "4": 1, 
        "crack": 1, 
        "east": 1, 
        "excited": 1, 
        "nate": 1, 
        "kingdom": 1, 
        "breaks": 1, 
        "disagreement": 1, 
        "matters": 1, 
        "unseen": 1, 
        "wings": 1, 
        "inviting": 1, 
        "lost": 1, 
        "55": 1, 
        "benefit": 1, 
        "individuals": 1, 
        "become": 1, 
        "Ark": 1, 
        "ninety-four": 1, 
        "absolutely": 1, 
        "King's": 1, 
        "accelerate": 1, 
        "home": 1, 
        "thinks": 1, 
        "recognition": 1, 
        "enemies": 1, 
        "savage": 1, 
        "trust": 1, 
        "stumble": 1, 
        "affects": 1, 
        "audience": 1, 
        "/": 1, 
        "resonate": 1, 
        "exit": 1, 
        "temple": 1, 
        "blurry": 1, 
        "locate": 1, 
        "core": 1, 
        "ripped": 1, 
        "wheat": 1, 
        "business": 1, 
        "300": 1, 
        "journal": 1, 
        "communicate": 1, 
        "Salman": 1, 
        "step": 1, 
        "relating": 1, 
        "foolish": 1, 
        "tease": 1, 
        "months": 1, 
        "statement": 1, 
        "recognizes": 1, 
        "lasting": 1, 
        "amasses": 1, 
        "honeymoon": 1, 
        "washington": 1, 
        "blessed": 1, 
        "intellectual": 1, 
        "fuselage": 1, 
        "parties": 1, 
        "feudal": 1, 
        "risk": 1, 
        "Covenant": 1, 
        "her": 1, 
        "dichotomy": 1, 
        "specifically": 1, 
        "start": 1, 
        "futile": 1, 
        "rhetorical": 1, 
        "bubble": 1, 
        "opens": 1, 
        "happy": 1, 
        "building": 1, 
        "head": 1, 
        "buy": 1, 
        "form": 1, 
        "replies": 1, 
        "Psalm": 1, 
        "squeeze": 1, 
        "I'll": 1, 
        "administering": 1, 
        "builds": 1, 
        "inside": 1, 
        "concubines": 1, 
        "placed": 1, 
        "grasp": 1, 
        "embed": 1, 
        "piece": 1, 
        "constant": 1, 
        "certain": 1, 
        "describe": 1, 
        "moved": 1, 
        "imagination": 1, 
        "single": 1, 
        "Nate": 1, 
        "radically": 1, 
        "dying": 1, 
        "sleepwalking": 1, 
        "ourselves": 1, 
        "sick": 1, 
        "conclusion": 1, 
        "kinds": 1, 
        "monday": 1, 
        "Netflix": 1, 
        "AL": 1, 
        "includes": 1, 
        "lens": 1, 
        "guy's": 1, 
        "weekend": 1, 
        "jacked": 1, 
        "younger": 1, 
        "walked": 1, 
        "push": 1, 
        "sniffer": 1, 
        "precedent": 1, 
        "Jim": 2, 
        "month": 2, 
        "sleep": 2, 
        "golfer": 2, 
        "passion": 2, 
        "rise": 2, 
        "presses": 2, 
        "worst": 2, 
        "govern": 2, 
        "telling": 2, 
        "expectations": 2, 
        "four": 2, 
        "woven": 2, 
        "talked": 2, 
        "ten": 2, 
        "satisfy": 2, 
        "desires": 2, 
        "funeral": 2, 
        "fulfill": 2, 
        "teacher": 2, 
        "brilliant": 2, 
        "experience": 2, 
        "studies": 2, 
        "named": 2, 
        "love": 2, 
        "everybody": 2, 
        "call": 2, 
        "until": 2, 
        "brings": 2, 
        "mankind": 2, 
        "basically": 2, 
        "fly": 2, 
        "works": 2, 
        "created": 2, 
        "Commandments": 2, 
        "process": 2, 
        "slip": 2, 
        "sense": 2, 
        "wardroom": 2, 
        "pressing": 2, 
        "1": 2, 
        "vancouver": 2, 
        "actual": 2, 
        "beach": 2, 
        "tried": 2, 
        "after": 2, 
        "coming": 2, 
        "I'd": 2, 
        "dream": 2, 
        "mission": 2, 
        "looks": 2, 
        "its": 2, 
        "messed": 2, 
        "haven't": 2, 
        "happened": 2, 
        "hall": 2, 
        "Elliot": 2, 
        "profound": 2, 
        "each": 2, 
        "series": 2, 
        "special": 2, 
        "fathom": 2, 
        "asleep": 2, 
        "linear": 2, 
        "fourteen": 2, 
        "prepare": 2, 
        "ministry": 2, 
        "starts": 2, 
        "long": 2, 
        "hear": 2, 
        "doesn't": 2, 
        "too": 2, 
        "humans": 2, 
        "depressing": 2, 
        "matter": 2, 
        "solomon": 2, 
        "feeling": 2, 
        "saw": 2, 
        "car": 2, 
        "built": 2, 
        "which": 2, 
        "discerning": 2, 
        "experiences": 2, 
        "chemistry": 2, 
        "fact": 2, 
        "bail": 2, 
        "writes": 2, 
        "hopeful": 2, 
        "king": 2, 
        "made": 2, 
        "married": 2, 
        "gospel": 2, 
        "river": 2, 
        "preach": 2, 
        "human": 2, 
        "mind": 2, 
        "ways": 2, 
        "between": 2, 
        "joy": 2, 
        "job": 2, 
        "many": 2, 
        "duty": 2, 
        "whatever": 2, 
        "save": 2, 
        "aren't": 2, 
        "mind-blowing": 2, 
        "teach": 2, 
        "trajectory": 2, 
        "mark": 2, 
        "much": 2, 
        "turned": 2, 
        "myself": 2, 
        "50s": 2, 
        "almost": 2, 
        "allows": 2, 
        "Israel": 2, 
        "difficult": 2, 
        "finish": 2, 
        "toil": 2, 
        "flew": 2, 
        "plugs": 2, 
        "rest": 2, 
        "yet": 2, 
        "happiness": 2, 
        "thinking": 2, 
        "percent": 2, 
        "big": 2, 
        "wives": 2, 
        "unique": 2, 
        "helpful": 2, 
        "desire": 2, 
        "50": 2, 
        "lose": 2, 
        "security": 2, 
        "hair": 2, 
        "lead": 2, 
        "David": 2, 
        "gifts": 2, 
        "hard": 2, 
        "fill": 2, 
        "friends": 2, 
        "lot": 2, 
        "forever": 2, 
        "eat": 2, 
        "wasn't": 2, 
        "um": 2, 
        "gone": 2, 
        "later": 2, 
        "deep": 2, 
        "knows": 2, 
        "Miata": 2, 
        "brilliance": 2, 
        "40": 2, 
        "better": 2, 
        "incredibly": 2, 
        "sides": 2, 
        "happening": 2, 
        "having": 2, 
        "pointing": 3, 
        "worth": 3, 
        "heard": 3, 
        "die": 3, 
        "clarity": 3, 
        "likely": 3, 
        "street": 3, 
        "grandparents": 3, 
        "men": 3, 
        "change": 3, 
        "clarify": 3, 
        "ago": 3, 
        "rises": 3, 
        "working": 3, 
        "few": 3, 
        "today": 3, 
        "known": 3, 
        "none": 3, 
        "Bible": 3, 
        "simple": 3, 
        "six": 3, 
        "may": 3, 
        "plane": 3, 
        "meaningful": 3, 
        "remember": 3, 
        "talk": 3, 
        "pastor": 3, 
        "somewhere": 3, 
        "someone": 3, 
        "girl": 3, 
        "she": 3, 
        "wanted": 3, 
        "upon": 3, 
        "massive": 3, 
        "anyone": 3, 
        "hundred": 3, 
        "relationship": 3, 
        "11": 3, 
        "12": 3, 
        "decided": 3, 
        "walk": 3, 
        "also": 3, 
        "normal": 3, 
        "significant": 3, 
        "you'll": 3, 
        "panic": 3, 
        "3": 3, 
        "collected": 3, 
        "great": 3, 
        "anymore": 3, 
        "away": 3, 
        "9": 3, 
        "couple": 3, 
        "hand": 3, 
        "can't": 3, 
        "left": 3, 
        "helping": 3, 
        "collect": 3, 
        "oh": 3, 
        "understood": 3, 
        "asking": 3, 
        "Keith": 3, 
        "chance": 3, 
        "tribe": 3, 
        "getting": 3, 
        "promise": 3, 
        "rely": 3, 
        "area": 3, 
        "idea": 3, 
        "wise": 3, 
        "wish": 3, 
        "incredible": 3, 
        "setting": 3, 
        "5": 3, 
        "utterly": 3, 
        "died": 3, 
        "wife": 3, 
        "age": 3, 
        "came": 3, 
        "further": 4, 
        "family": 4, 
        "crazy": 4, 
        "names": 4, 
        "redo": 4, 
        "use": 4, 
        "next": 4, 
        "means": 4, 
        "didn't": 4, 
        "capture": 4, 
        "wrong": 4, 
        "won't": 4, 
        "son": 4, 
        "nor": 4, 
        "leave": 4, 
        "looking": 4, 
        "success": 4, 
        "feel": 4, 
        "behind": 4, 
        "took": 4, 
        "cyclical": 4, 
        "let's": 4, 
        "without": 4, 
        "play": 4, 
        "nothing": 4, 
        "points": 4, 
        "culture": 4, 
        "career": 4, 
        "whole": 4, 
        "thousand": 4, 
        "cannot": 4, 
        "same": 4, 
        "wisest": 4, 
        "never": 4, 
        "cycle": 4, 
        "off": 4, 
        "well": 4, 
        "moments": 4, 
        "majority": 4, 
        "we've": 4, 
        "read": 4, 
        "dark": 4, 
        "makes": 4, 
        "press": 4, 
        "bit": 4, 
        "experienced": 4, 
        "anything": 4, 
        "removes": 4, 
        "tell": 4, 
        "happen": 4, 
        "again": 4, 
        "successful": 4, 
        "goes": 5, 
        "amount": 5, 
        "within": 5, 
        "i'm": 5, 
        "beginning": 5, 
        "Lord": 5, 
        "amazing": 5, 
        "answer": 5, 
        "different": 5, 
        "Ecclesiastes": 5, 
        "might": 5, 
        "entire": 5, 
        "gets": 5, 
        "found": 5, 
        "tonight": 5, 
        "God's": 5, 
        "phrase": 5, 
        "hope": 5, 
        "sure": 5, 
        "ever": 5, 
        "set": 5, 
        "recognize": 5, 
        "else": 5, 
        "those": 5, 
        "being": 5, 
        "thought": 5, 
        "hearts": 5, 
        "build": 5, 
        "church": 5, 
        "night": 5, 
        "down": 5, 
        "enough": 5, 
        "becomes": 5, 
        "they're": 5, 
        "clear": 5, 
        "she's": 5, 
        "sudden": 5, 
        "wake": 5, 
        "let": 6, 
        "beautiful": 6, 
        "realized": 6, 
        "every": 6, 
        "try": 6, 
        "comes": 6, 
        "got": 6, 
        "days": 6, 
        "another": 6, 
        "talking": 6, 
        "find": 6, 
        "earth": 6, 
        "pointed": 6, 
        "somehow": 6, 
        "always": 6, 
        "called": 6, 
        "asked": 6, 
        "around": 6, 
        "towards": 6, 
        "wealth": 6, 
        "gain": 6, 
        "stories": 6, 
        "together": 6, 
        "generations": 6, 
        "time": 6, 
        "new": 7, 
        "significance": 7, 
        "man": 7, 
        "side": 7, 
        "ultimately": 7, 
        "take": 7, 
        "wisdom": 7, 
        "than": 7, 
        "years": 7, 
        "come": 7, 
        "last": 7, 
        "most": 7, 
        "make": 7, 
        "any": 7, 
        "person": 7, 
        "world": 7, 
        "chapter": 7, 
        "am": 7, 
        "very": 7, 
        "an": 7, 
        "Jesus": 8, 
        "end": 8, 
        "first": 8, 
        "actually": 8, 
        "weeks": 8, 
        "good": 8, 
        "ask": 8, 
        "could": 8, 
        "powerful": 8, 
        "number": 8, 
        "gives": 8, 
        "believe": 8, 
        "what's": 8, 
        "meaning": 8, 
        "fear": 8, 
        "trying": 8, 
        "before": 8, 
        "King": 8, 
        "death": 8, 
        "couldn't": 8, 
        "day": 8, 
        "other": 8, 
        "bigger": 8, 
        "by": 8, 
        "house": 8, 
        "work": 8, 
        "eternity": 8, 
        "even": 9, 
        "purpose": 9, 
        "doing": 9, 
        "little": 9, 
        "pants": 9, 
        "three": 9, 
        "living": 9, 
        "look": 9, 
        "no": 9, 
        "gonna": 9, 
        "would": 9, 
        "bed": 9, 
        "hey": 9, 
        "way": 10, 
        "place": 10, 
        "name": 10, 
        "reality": 10, 
        "help": 10, 
        "should": 10, 
        "lived": 10, 
        "door": 10, 
        "keep": 10, 
        "open": 11, 
        "only": 11, 
        "part": 11, 
        "I've": 11, 
        "him": 11, 
        "everything": 11, 
        "question": 11, 
        "them": 12, 
        "need": 12, 
        "through": 12, 
        "some": 12, 
        "did": 13, 
        "guy": 13, 
        "put": 13, 
        "heart": 13, 
        "done": 13, 
        "guys": 13, 
        "point": 13, 
        "book": 13, 
        "began": 13, 
        "happens": 14, 
        "said": 14, 
        "now": 15, 
        "does": 15, 
        "verse": 15, 
        "more": 15, 
        "okay": 15, 
        "maybe": 15, 
        "were": 15, 
        "had": 15, 
        "two": 15, 
        "meaningless": 15, 
        "give": 16, 
        "story": 16, 
        "been": 16, 
        "realize": 16, 
        "from": 17, 
        "their": 17, 
        "saying": 17, 
        "context": 17, 
        "will": 17, 
        "back": 17, 
        "then": 18, 
        "able": 18, 
        "begins": 18, 
        "people": 18, 
        "one": 19, 
        "go": 19, 
        "figure": 19, 
        "or": 19, 
        "moment": 19, 
        "he's": 20, 
        "has": 20, 
        "into": 21, 
        "his": 21, 
        "where": 21, 
        "up": 21, 
        "why": 22, 
        "under": 23, 
        "at": 23, 
        "we're": 23, 
        "how": 23, 
        "God": 24, 
        "see": 24, 
        "i": 24, 
        "there": 25, 
        "say": 25, 
        "lives": 25, 
        "who": 25, 
        "beyond": 25, 
        "that's": 26, 
        "live": 27, 
        "stuff": 27, 
        "thing": 28, 
        "don't": 28, 
        "think": 28, 
        "things": 28, 
        "get": 29, 
        "you're": 29, 
        "understand": 29, 
        "Solomon": 29, 
        "because": 29, 
        "with": 29, 
        "here": 30, 
        "here's": 30, 
        "as": 30, 
        "kind": 30, 
        "it's": 31, 
        "I'm": 32, 
        "want": 32, 
        "about": 33, 
        "really": 34, 
        "over": 34, 
        "can": 35, 
        "just": 36, 
        "me": 37, 
        "my": 38, 
        "these": 39, 
        "when": 39, 
        "out": 40, 
        "know": 40, 
        "are": 41, 
        "on": 42, 
        "if": 42, 
        "there's": 43, 
        "says": 44, 
        "something": 44, 
        "was": 44, 
        "but": 44, 
        "not": 45, 
        "Sun": 48, 
        "they": 49, 
        "your": 50, 
        "our": 50, 
        "us": 51, 
        "be": 52, 
        "do": 54, 
        "right": 56, 
        "like": 62, 
        "have": 64, 
        "so": 66, 
        "for": 69, 
        "going": 70, 
        "begin": 71, 
        "he": 81, 
        "life": 84, 
        "all": 87, 
        "it": 93, 
        "a": 128, 
        "what": 130, 
        "in": 140, 
        "we": 148, 
        "I": 176, 
        "you": 182, 
        "of": 188, 
        "is": 224, 
        "this": 255, 
        "that": 271, 
        "the": 317, 
        "and": 336, 
        "to": 404
    }, 
    "metadata": {
        "pastor": "Kieth Weiser", 
        "title": "What Am I Here For"
    }
}